M48
;DRILL file {Pcbnew (22-Jun-2014 BZR 4027)-stable} date Mon May 10 13:00:41 2021
;FORMAT={-:-/ absolute / metric / decimal}
FMAT,2
METRIC,TZ
T1C0.899
%
G90
G05
M71
T1
X74.851Y-56.8
X74.851Y-61.2
T0
M30
