PCBNEW-LibModule-V1  Wed Nov 14 13:18:04 2018
# encoding utf-8
Units mm
$INDEX
C_0603-rubi
C_4x5.8
DO-213AB
DO-221AC
JS-2pin
JS-3pin
L-100mH
L-wurth-4pin
L47-rubi
LED-0603-rubi
LED-3MM-rubi
R-TE-15W
R0603-rubi
SM0402-rubi
SM0805-rubi
SM1206-rubi
SM2010-rubi
SOD323-rubi
SOT23-NMOS
SOT23-PMOS
SOT23-rubi
SOT23-zener
TP-1mm
TP-1mm-hole
TP-2mm
TUW-5-resistor
TUW-7-resistor
Xtal-smd-12mm
breadboard-6x6
button-smd-2p
buzzer
choke-tdk
diode-power
fiducial
fuse-5x15mm
hole-3mm
hole-4mm
led-rgb-rubi
relay-big
relay-ouaz
relay-spst-g6dn
sc-75-rubi
solder-jumper
solder-jumper3
supercap
trasf-rubi
trimmer
trimmer-38x36
trimmer-big
xtal-32768
$EndINDEX
$MODULE C_0603-rubi
Po 0 0 0 15 56F53F0E 00000000 ~~
Li C_0603-rubi
Cd SMT capacitor, 0603
Sc 0
AR /55F33E32
Op 0 0 0
T0 0 1.016 0.508 0.508 0 0.1016 N V 21 N "C?"
T1 0 -1.016 0.5 0.5 0 0.1 N V 21 N "100n"
DS 0.5588 0.4064 0.5588 -0.4064 0.127 21
DS -0.5588 -0.381 -0.5588 0.4064 0.127 21
DS -0.8128 -0.4064 0.8128 -0.4064 0.127 21
DS 0.8128 -0.4064 0.8128 0.4064 0.127 21
DS 0.8128 0.4064 -0.8128 0.4064 0.127 21
DS -0.8128 0.4064 -0.8128 -0.4064 0.127 21
$PAD
Sh "1" R 0.89916 1.00076 0 0 0
Dr 0 0 0
At SMD N 00888000
Ne 0 ""
Po 0.75184 0
$EndPAD
$PAD
Sh "2" R 0.89916 1.00076 0 0 0
Dr 0 0 0
At SMD N 00888000
Ne 0 ""
Po -0.75184 0
$EndPAD
$SHAPE3D
Na "smd/capacitors/c_0603.wrl"
Sc 1 1 1
Of 0 0 0
Ro 0 0 0
$EndSHAPE3D
$EndMODULE C_0603-rubi
$MODULE C_4x5.8
Po 0 0 0 15 56F53F8B 00000000 ~~
Li C_4x5.8
Cd SMT capacitor, aluminium electrolytic, 4x5.8
Sc 0
AR /55F6ADEC
Op 0 0 0
T0 0 -2.794 0.50038 0.50038 0 0.1 N V 21 N "C?"
T1 0 2.794 0.50038 0.50038 0 0.1 N V 21 N "100uF"
DS 1.651 0 0.889 0 0.127 21
DS 1.27 -0.381 1.27 0.381 0.127 21
DS 1.524 2.286 -2.286 2.286 0.127 21
DS 2.286 -1.524 2.286 1.524 0.127 21
DS 1.524 2.286 2.286 1.524 0.127 21
DS 1.524 -2.286 -2.286 -2.286 0.127 21
DS 1.524 -2.286 2.286 -1.524 0.127 21
DS -2.032 0.127 -2.032 -0.127 0.127 21
DS -1.905 -0.635 -1.905 0.635 0.127 21
DS -1.778 0.889 -1.778 -0.889 0.127 21
DS -1.651 1.143 -1.651 -1.143 0.127 21
DS -1.524 -1.27 -1.524 1.27 0.127 21
DS -1.397 1.397 -1.397 -1.397 0.127 21
DS -1.27 -1.524 -1.27 1.524 0.127 21
DS -1.143 -1.651 -1.143 1.651 0.127 21
DC 0 0 -2.032 0 0.127 21
DS -2.286 -2.286 -2.286 2.286 0.127 21
$PAD
Sh "1" R 2.60096 1.6002 0 0 0
Dr 0 0 0
At SMD N 00888000
Ne 0 ""
Po 1.80086 0
$EndPAD
$PAD
Sh "2" R 2.60096 1.6002 0 0 0
Dr 0 0 0
At SMD N 00888000
Ne 0 ""
Po -1.80086 0
$EndPAD
$SHAPE3D
Na "smd/capacitors/c_elec_4x5_8.wrl"
Sc 1 1 1
Of 0 0 0
Ro 0 0 0
$EndSHAPE3D
$EndMODULE C_4x5.8
$MODULE DO-213AB
Po 0 0 0 15 5BEC1275 00000000 ~~
Li DO-213AB
Sc 0
AR 
Op 0 0 0
T0 0 -2.1 0.7 0.7 0 0.14 N V 21 N "DO-213AB"
T1 0 2.3 0.7 0.7 0 0.14 N V 21 N "VAL**"
DS 2.8 -2 4 -2 0.15 21
DS 4 -2 4 2 0.15 21
DS 4 2 2.8 2 0.15 21
DS -3.4 -1.6 -3.4 1.6 0.15 21
DS -3.4 1.6 3.4 1.6 0.15 21
DS 3.4 1.6 3.4 -1.6 0.15 21
DS 3.4 -1.6 -3.4 -1.6 0.15 21
$PAD
Sh "1" R 1.4 3 0 0 0
Dr 0 0 0
At SMD N 00888000
Ne 0 ""
Po -2.7 0
$EndPAD
$PAD
Sh "2" R 1.4 3 0 0 0
Dr 0 0 0
At SMD N 00888000
Ne 0 ""
Po 2.7 0
$EndPAD
$EndMODULE DO-213AB
$MODULE DO-221AC
Po 0 0 0 15 5BCB56AD 00000000 ~~
Li DO-221AC
Cd DO-214AA (SMB)  PACKAGE.
Kw DO-214AA SMB
Sc 0
AR /5BCA4790/5BCA605C
Op 0 0 0
At SMD
T0 -3.683 0 0.7 0.7 900 0.14 N V 21 N "D201"
T1 3.937 0 0.7 0.7 900 0.14 N V 21 N "VSSAF56"
DS 1.7 -1.7 2.3 -1.7 0.15 21
DS 2.3 -1.7 2.3 1.7 0.15 21
DS 2.3 1.7 1.7 1.7 0.15 21
DS -2.1 -1.4 2.1 -1.4 0.15 21
DS 2.1 -1.4 2.1 1.4 0.15 21
DS 2.1 1.4 -2.1 1.4 0.15 21
DS -2.1 1.4 -2.1 -1.4 0.15 21
$PAD
Sh "1" R 1.4 1.6 0 0 0
Dr 0 0 0
At SMD N 00888000
Ne 1 "/power/PANEL+"
Po -2.26 0
$EndPAD
$PAD
Sh "2" R 1.4 1.6 0 0 0
Dr 0 0 0
At SMD N 00888000
Ne 2 "/power/p-S"
Po 2.26 0
$EndPAD
$SHAPE3D
Na "smd/do214.wrl"
Sc 1 1 1
Of 0 0 0
Ro 0 0 0
$EndSHAPE3D
$EndMODULE DO-221AC
$MODULE JS-2pin
Po 0 0 0 15 5B20C78F 00000000 ~~
Li JS-2pin
Sc 0
AR /560D74C9
Op 0 0 0
.LocalClearance 0.15
T0 0 1.27 0.7 0.7 0 0.14 N V 21 N "JS?"
T1 0 -1.27 0.7 0.7 0 0.14 N I 21 N "JS-2pin"
$PAD
Sh "1" R 1.5 1 0 0 0
Dr 0 0 0
At SMD N 00808000
Ne 0 ""
Po -0.85 0
$EndPAD
$PAD
Sh "2" R 1.5 1 0 0 0
Dr 0 0 0
At SMD N 00808000
Ne 0 ""
Po 0.85 0
$EndPAD
$EndMODULE JS-2pin
$MODULE JS-3pin
Po 0 0 0 15 5B20C7A5 00000000 ~~
Li JS-3pin
Sc 0
AR /55F31302
Op 0 0 0
.LocalClearance 0.15
T0 0 1.524 0.7 0.7 0 0.14 N V 21 N "JS?"
T1 -0.254 -1.27 0.7 0.7 0 0.14 N I 21 N "JS-3pin"
$PAD
Sh "1" R 1.5 1 0 0 0
Dr 0 0 0
At SMD N 00808000
Ne 0 ""
Po -1.65 0
$EndPAD
$PAD
Sh "2" R 1.5 1 0 0 0
Dr 0 0 0
At SMD N 00808000
Ne 0 ""
Po 0.05 0
$EndPAD
$PAD
Sh "3" R 1.5 1 0 0 0
Dr 0 0 0
At SMD N 00808000
Ne 0 ""
Po 1.75 0
$EndPAD
$EndMODULE JS-3pin
$MODULE L-100mH
Po 0 0 0 15 5AE12093 00000000 ~~
Li L-100mH
Sc 0
AR 
Op 0 0 0
T0 0 -6 0.7 0.7 0 0.14 N V 21 N "L-100mH"
T1 0 3 0.7 0.7 0 0.14 N V 21 N "VAL**"
DC 0 0 4.5 -0.5 0.15 21
$PAD
Sh "1" C 1.8 1.8 0 0 0
Dr 1.2 0 0
At STD N 00E0FFFF
Ne 0 ""
Po -2.5 0
$EndPAD
$PAD
Sh "2" C 1.8 1.8 0 0 0
Dr 1.2 0 0
At STD N 00E0FFFF
Ne 0 ""
Po 2.5 0
$EndPAD
$EndMODULE L-100mH
$MODULE L-wurth-4pin
Po 0 0 0 15 5BCADEF6 00000000 ~~
Li L-wurth-4pin
Sc 0
AR 
Op 0 0 0
T0 0 6.5 0.7 0.7 0 0.14 N V 21 N "L-wurth-4pin"
T1 0 -6.5 0.7 0.7 0 0.14 N V 21 N "VAL**"
DC 0 0 5.5 0 0.15 21
$PAD
Sh "~" C 2 2 0 0 0
Dr 1.2 0 0
At STD N 00E0FFFF
Ne 0 ""
Po -2.5 2
$EndPAD
$PAD
Sh "1" C 2 2 0 0 0
Dr 1.2 0 0
At STD N 00E0FFFF
Ne 0 ""
Po 2.5 2
$EndPAD
$PAD
Sh "~" C 2 2 0 0 0
Dr 1.2 0 0
At STD N 00E0FFFF
Ne 0 ""
Po 2.5 -2
$EndPAD
$PAD
Sh "2" C 2 2 0 0 0
Dr 1.2 0 0
At STD N 00E0FFFF
Ne 0 ""
Po -2.5 -2
$EndPAD
$EndMODULE L-wurth-4pin
$MODULE L47-rubi
Po 0 0 0 15 595DDD7B 00000000 ~~
Li L47-rubi
Sc 0
AR 
Op 0 0 0
T0 0 -5 1 1 0 0.15 N V 21 N "L47-rubi"
T1 0 5.5 1 1 0 0.15 N V 21 N "VAL**"
DS 3.25 -3.5 3.25 3.5 0.15 21
DS 3.25 3.5 -3.25 3.5 0.15 21
DS -3.25 3.5 -3.25 -3.5 0.15 21
DS -3.25 -3.5 3.25 -3.5 0.15 21
$PAD
Sh "1" R 6 2 0 0 0
Dr 0 0 0
At SMD N 00888000
Ne 0 ""
Po 0 -2.15
$EndPAD
$PAD
Sh "2" R 6 2 0 0 0
Dr 0 0 0
At SMD N 00888000
Ne 0 ""
Po 0 2.15
$EndPAD
$EndMODULE L47-rubi
$MODULE LED-0603-rubi
Po 0 0 0 15 56F543B4 00000000 ~~
Li LED-0603-rubi
Cd LED 0603 smd package
Kw LED led 0603 SMD smd SMT smt smdled SMDLED smtled SMTLED
Sc 0
AR /560D79D8
Op 0 0 0
At SMD
T0 -1.905 0.635 0.508 0.508 0 0.1 N V 21 N "D?"
T1 0 1.016 0.508 0.508 0 0.127 N V 21 N "G LED"
DS 0.8 -0.75 1.55 -0.75 0.15 21
DS 1.55 -0.75 1.55 0.75 0.15 21
DS 1.55 0.75 0.8 0.75 0.15 21
DS 0.44958 -0.44958 0.44958 0.44958 0.06604 21
DS 0.44958 0.44958 0.84836 0.44958 0.06604 21
DS 0.84836 -0.44958 0.84836 0.44958 0.06604 21
DS 0.44958 -0.44958 0.84836 -0.44958 0.06604 21
DS -0.84836 -0.44958 -0.84836 0.44958 0.06604 21
DS -0.84836 0.44958 -0.44958 0.44958 0.06604 21
DS -0.44958 -0.44958 -0.44958 0.44958 0.06604 21
DS -0.84836 -0.44958 -0.44958 -0.44958 0.06604 21
DS 0 -0.44958 0 -0.29972 0.06604 21
DS 0 -0.29972 0.29972 -0.29972 0.06604 21
DS 0.29972 -0.44958 0.29972 -0.29972 0.06604 21
DS 0 -0.44958 0.29972 -0.44958 0.06604 21
DS 0 0.29972 0 0.44958 0.06604 21
DS 0 0.44958 0.29972 0.44958 0.06604 21
DS 0.29972 0.29972 0.29972 0.44958 0.06604 21
DS 0 0.29972 0.29972 0.29972 0.06604 21
DS 0 -0.14986 0 0.14986 0.06604 21
DS 0 0.14986 0.29972 0.14986 0.06604 21
DS 0.29972 -0.14986 0.29972 0.14986 0.06604 21
DS 0 -0.14986 0.29972 -0.14986 0.06604 21
DS 0.44958 -0.39878 -0.44958 -0.39878 0.1016 21
DS 0.44958 0.39878 -0.44958 0.39878 0.1016 21
$PAD
Sh "1" R 0.79756 0.79756 0 0 0
Dr 0 0 0
At SMD N 00888000
Ne 0 ""
Po -0.7493 0
$EndPAD
$PAD
Sh "2" R 0.79756 0.79756 0 0 0
Dr 0 0 0
At SMD N 00888000
Ne 0 ""
Po 0.7493 0
$EndPAD
$EndMODULE LED-0603-rubi
$MODULE LED-3MM-rubi
Po 0 0 0 15 59ABBCF4 00000000 ~~
Li LED-3MM-rubi
Cd LED 3mm - Lead pitch 100mil (2,54mm)
Kw LED led 3mm 3MM 100mil 2,54mm
Sc 0
AR /59ABAC0C
Op 0 0 0
T0 1.5 3.5 0.762 0.762 0 0.0889 N V 21 N "D1"
T1 0 2.54 0.762 0.762 0 0.0889 N V 21 N "red"
DS 1.8288 1.27 1.8288 -1.27 0.254 21
DA 0.254 0 0.254 -2.032 501 0.254 21
DA 0.254 0 -1.5367 -0.95504 619 0.254 21
DA 0.254 0 1.8034 1.31064 497 0.254 21
DA 0.254 0 0.254 2.032 602 0.254 21
DA 0.254 0 -1.778 0 283 0.254 21
DA 0.254 0 -1.47574 1.06426 316 0.254 21
$PAD
Sh "1" C 1.6764 1.6764 0 0 0
Dr 1 0 0
At STD N 00E0FFFF
Ne 2 "N-000007"
Po -1.27 0
$EndPAD
$PAD
Sh "2" C 1.6764 1.6764 0 0 0
Dr 1 0 0
At STD N 00E0FFFF
Ne 1 "GND"
Po 1.27 0
$EndPAD
$SHAPE3D
Na "discret/leds/led3_vertical_verde.wrl"
Sc 1 1 1
Of 0 0 0
Ro 0 0 0
$EndSHAPE3D
$EndMODULE LED-3MM-rubi
$MODULE R-TE-15W
Po 0 0 0 15 5BCAE7E4 00000000 ~~
Li R-TE-15W
Sc 0
AR 
Op 0 0 0
T0 0 2 0.7 0.7 0 0.14 N V 21 N "R-TE-15W"
T1 0 0 0.7 0.7 0 0.14 N V 21 N "VAL**"
DS -3.5 6 -10.5 6 0.15 21
DS 3.5 -6 10.5 -6 0.15 21
DS 10.5 -10.5 3.5 -10.5 0.15 21
DS 3.5 -10.5 3.5 -6 0.15 21
DS 3.5 -6 -10.5 -6 0.15 21
DS -10.5 -6 -10.5 10.5 0.15 21
DS -10.5 10.5 -3.5 10.5 0.15 21
DS -3.5 10.5 -3.5 6 0.15 21
DS -3.5 6 10.5 6 0.15 21
DS 10.5 6 10.5 -10.5 0.15 21
$PAD
Sh "" R 6 4 0 0 0
Dr 2.6 0 0
At STD N 00E0FFFF
Ne 0 ""
Po 7.15 -7.95
$EndPAD
$PAD
Sh "" R 6 4 0 0 0
Dr 2.6 0 0
At STD N 00E0FFFF
Ne 0 ""
Po -7.15 7.95
.ZoneConnection 2
$EndPAD
$PAD
Sh "1" C 3 3 0 0 0
Dr 1.5 0 0
At STD N 00E0FFFF
Ne 0 ""
Po 16 0
$EndPAD
$PAD
Sh "2" C 3 3 0 0 0
Dr 1.5 0 0
At STD N 00E0FFFF
Ne 0 ""
Po -16 0
$EndPAD
$EndMODULE R-TE-15W
$MODULE R0603-rubi
Po 0 0 0 15 56F54717 00000000 ~~
Li R0603-rubi
Sc 0
AR /560D79E5
Op 0 0 0
At SMD
T0 -1.778 0 0.5 0.5 900 0.1 N V 21 N "R?"
T1 1.778 0 0.5 0.5 900 0.1 N V 21 N "10k"
DS -1.143 -0.635 1.143 -0.635 0.127 21
DS 1.143 -0.635 1.143 0.635 0.127 21
DS 1.143 0.635 -1.143 0.635 0.127 21
DS -1.143 0.635 -1.143 -0.635 0.127 21
$PAD
Sh "1" R 0.635 1.143 0 0 0
Dr 0 0 0
At SMD N 00888000
Ne 1 "/Vin+"
Po -0.762 0
$EndPAD
$PAD
Sh "2" R 0.635 1.143 0 0 0
Dr 0 0 0
At SMD N 00888000
Ne 2 "N-0000049"
Po 0.762 0
$EndPAD
$SHAPE3D
Na "smd\\resistors\\R0603.wrl"
Sc 0.5 0.5 0.5
Of 0 0 0.001
Ro 0 0 0
$EndSHAPE3D
$EndMODULE R0603-rubi
$MODULE SM0402-rubi
Po 0 0 0 15 57040316 00000000 ~~
Li SM0402-rubi
Sc 0
AR SM0402
Op 0 0 0
At SMD
T0 -1.2 0 0.4 0.4 900 0.08 N V 21 N "SM0402"
T1 1.3 0 0.4 0.4 900 0.08 N V 21 N "VAL**"
DS 0.762 -0.381 -0.762 -0.381 0.07 21
DS -0.762 -0.381 -0.762 0.381 0.07112 21
DS -0.762 0.381 0.762 0.381 0.07112 21
DS 0.254 -0.381 0.762 -0.381 0.07112 21
DS 0.762 -0.381 0.762 0.381 0.07112 21
DS 0.762 0.381 0.254 0.381 0.07112 21
$PAD
Sh "1" R 0.39878 0.59944 0 0 0
Dr 0 0 0
At SMD N 00888000
Ne 0 ""
Po -0.44958 0
$EndPAD
$PAD
Sh "2" R 0.39878 0.59944 0 0 0
Dr 0 0 0
At SMD N 00888000
Ne 0 ""
Po 0.44958 0
$EndPAD
$SHAPE3D
Na "smd\\chip_cms.wrl"
Sc 0.05 0.05 0.05
Of 0 0 0.002
Ro 0 0 0
$EndSHAPE3D
$EndMODULE SM0402-rubi
$MODULE SM0805-rubi
Po 0 0 0 15 570402A0 00000000 ~~
Li SM0805-rubi
Sc 0
AR SM0805
Op 0 0 0
At SMD
T0 -2 0 0.5 0.5 900 0.1 N V 21 N "SM0805"
T1 2.1 0 0.5 0.5 900 0.1 N V 21 N "Val*"
DS 1.524 0.762 -1.524 0.762 0.09906 21
DS -1.524 0.762 -1.524 -0.762 0.09906 21
DS -1.524 -0.762 1.524 -0.762 0.09906 21
DS 0.508 -0.762 1.524 -0.762 0.09906 21
DS 1.524 -0.762 1.524 0.762 0.09906 21
DS 1.524 0.762 0.508 0.762 0.09906 21
$PAD
Sh "1" R 0.889 1.397 0 0 0
Dr 0 0 0
At SMD N 00888000
Ne 0 ""
Po -0.9525 0
$EndPAD
$PAD
Sh "2" R 0.889 1.397 0 0 0
Dr 0 0 0
At SMD N 00888000
Ne 0 ""
Po 0.9525 0
$EndPAD
$SHAPE3D
Na "smd/chip_cms.wrl"
Sc 0.1 0.1 0.1
Of 0 0 0
Ro 0 0 0
$EndSHAPE3D
$EndMODULE SM0805-rubi
$MODULE SM1206-rubi
Po 0 0 0 15 57040370 00000000 ~~
Li SM1206-rubi
Sc 0
AR SM1206
Op 0 0 0
At SMD
T0 -3.3 0 0.7 0.7 900 0.14 N V 21 N "SM1206"
T1 3.4 0 0.7 0.7 900 0.14 N V 21 N "Val**"
DS -2.54 -1.143 -2.54 1.143 0.127 21
DS -2.54 1.143 2.54 1.143 0.127 21
DS 0.889 -1.143 2.54 -1.143 0.127 21
DS 2.54 -1.143 2.54 1.143 0.127 21
DS 2.54 1.143 0.889 1.143 0.127 21
DS 2.54 -1.143 -2.54 -1.143 0.127 21
$PAD
Sh "1" R 1.524 2.032 0 0 0
Dr 0 0 0
At SMD N 00888000
Ne 0 ""
Po -1.651 0
$EndPAD
$PAD
Sh "2" R 1.524 2.032 0 0 0
Dr 0 0 0
At SMD N 00888000
Ne 0 ""
Po 1.651 0
$EndPAD
$SHAPE3D
Na "smd/chip_cms.wrl"
Sc 0.17 0.16 0.16
Of 0 0 0
Ro 0 0 0
$EndSHAPE3D
$EndMODULE SM1206-rubi
$MODULE SM2010-rubi
Po 0 0 0 15 5A980F13 00000000 ~~
Li SM2010-rubi
Kw CMS SM
Sc 0
AR 
Op 0 0 0
At SMD
T0 -4.2 0 0.7 0.7 900 0.14 N V 21 N "SM2010"
T1 4.4 0 0.7 0.7 900 0.14 N V 21 N "VAL**"
DS 3.50012 -1.6002 3.50012 1.6002 0.15 21
DS -3.5 -1.6 -3.5 1.6 0.15 21
DS 1.19634 1.60528 3.48234 1.60528 0.15 21
DS 3.48234 -1.60528 1.19634 -1.60528 0.15 21
DS -1.2 -1.6 -3.5 -1.6 0.15 21
DS -3.5 1.6 -1.2 1.6 0.15 21
$PAD
Sh "1" R 1.80086 2.70002 0 0 0
Dr 0 0 0
At SMD N 00888000
Ne 0 ""
Po -2.4003 0
$EndPAD
$PAD
Sh "2" R 1.80086 2.70002 0 0 0
Dr 0 0 0
At SMD N 00888000
Ne 0 ""
Po 2.4003 0
$EndPAD
$SHAPE3D
Na "smd\\chip_smd_pol_wide.wrl"
Sc 0.35 0.35 0.35
Of 0 0 0
Ro 0 0 0
$EndSHAPE3D
$EndMODULE SM2010-rubi
$MODULE SOD323-rubi
Po 0 0 0 15 5A25CCDF 00000000 ~~
Li SOD323-rubi
Sc 0
AR /58B6FAB8
Op 0 0 0
T0 0 3.302 0.7 0.7 0 0.14 N V 21 N "D?"
T1 1.27 0 0.7 0.7 900 0.14 N V 21 N "NSR0530H"
DS 1 2 1 1.2 0.15 21
DS -1 2 -1 1.2 0.15 21
DS -1 2 1 2 0.15 21
DS -0.59944 -0.8509 0.59944 -0.8509 0.24892 21
DS 0.59944 -0.8509 0.59944 0.8509 0.24892 21
DS 0.59944 0.8509 -0.59944 0.8509 0.24892 21
DS -0.59944 0.8509 -0.59944 -0.8509 0.24892 21
$PAD
Sh "1" R 1 0.8 0 0 0
Dr 0 0 0
At SMD N 00888000
Ne 1 "GND"
Po 0 -1.2
$EndPAD
$PAD
Sh "2" R 1 0.8 0 0 0
Dr 0 0 0
At SMD N 00888000
Ne 2 "N-0000028"
Po 0 1.2
$EndPAD
$EndMODULE SOD323-rubi
$MODULE SOT23-NMOS
Po 0 0 0 15 56F540D0 00000000 ~~
Li SOT23-NMOS
Kw SOT23
Sc 0
AR /55F32299
Op 0 0 0
T0 1.99898 -0.09906 0.762 0.762 900 0.11938 N V 21 N "Q2"
T1 0.0635 0 0.50038 0.50038 0 0.09906 N V 21 N "NMOS"
DC -1.17602 0.35052 -1.30048 0.44958 0.07874 21
DS 1.27 -0.508 1.27 0.508 0.07874 21
DS -1.3335 -0.508 -1.3335 0.508 0.07874 21
DS 1.27 0.508 -1.3335 0.508 0.07874 21
DS -1.3335 -0.508 1.27 -0.508 0.07874 21
$PAD
Sh "3" R 0.8001 1.00076 0 0 0
Dr 0 0 0
At SMD N 00888000
Ne 0 ""
Po 0 -1.09982
$EndPAD
$PAD
Sh "2" R 0.8001 1.00076 0 0 0
Dr 0 0 0
At SMD N 00888000
Ne 0 ""
Po 0.9525 1.09982
$EndPAD
$PAD
Sh "1" R 0.8001 1.00076 0 0 0
Dr 0 0 0
At SMD N 00888000
Ne 0 ""
Po -0.9525 1.09982
$EndPAD
$SHAPE3D
Na "smd\\SOT23_3.wrl"
Sc 0.4 0.4 0.4
Of 0 0 0
Ro 0 0 180
$EndSHAPE3D
$EndMODULE SOT23-NMOS
$MODULE SOT23-PMOS
Po 0 0 0 15 56F54097 00000000 ~~
Li SOT23-PMOS
Kw SOT23
Sc 0
AR /55F32299
Op 0 0 0
T0 1.99898 -0.09906 0.762 0.762 900 0.11938 N V 21 N "Q2"
T1 0.0635 0 0.50038 0.50038 0 0.09906 N V 21 N "PMOS"
DC -1.17602 0.35052 -1.30048 0.44958 0.07874 21
DS 1.27 -0.508 1.27 0.508 0.07874 21
DS -1.3335 -0.508 -1.3335 0.508 0.07874 21
DS 1.27 0.508 -1.3335 0.508 0.07874 21
DS -1.3335 -0.508 1.27 -0.508 0.07874 21
$PAD
Sh "3" R 0.8001 1.00076 0 0 0
Dr 0 0 0
At SMD N 00888000
Ne 0 ""
Po 0 -1.09982
$EndPAD
$PAD
Sh "2" R 0.8001 1.00076 0 0 0
Dr 0 0 0
At SMD N 00888000
Ne 0 ""
Po 0.9525 1.09982
$EndPAD
$PAD
Sh "1" R 0.8001 1.00076 0 0 0
Dr 0 0 0
At SMD N 00888000
Ne 0 ""
Po -0.9525 1.09982
$EndPAD
$SHAPE3D
Na "smd\\SOT23_3.wrl"
Sc 0.4 0.4 0.4
Of 0 0 0
Ro 0 0 180
$EndSHAPE3D
$EndMODULE SOT23-PMOS
$MODULE SOT23-rubi
Po 0 0 0 15 56F541C7 00000000 ~~
Li SOT23-rubi
Kw SOT23
Sc 0
AR /55F32299
Op 0 0 0
T0 1.99898 -0.09906 0.762 0.762 900 0.11938 N V 21 N "Q2"
T1 0.0635 0 0.50038 0.50038 0 0.09906 N V 21 N "Val**"
DC -1.17602 0.35052 -1.30048 0.44958 0.07874 21
DS 1.27 -0.508 1.27 0.508 0.07874 21
DS -1.3335 -0.508 -1.3335 0.508 0.07874 21
DS 1.27 0.508 -1.3335 0.508 0.07874 21
DS -1.3335 -0.508 1.27 -0.508 0.07874 21
$PAD
Sh "3" R 0.8001 1.00076 0 0 0
Dr 0 0 0
At SMD N 00888000
Ne 0 ""
Po 0 -1.09982
$EndPAD
$PAD
Sh "2" R 0.8001 1.00076 0 0 0
Dr 0 0 0
At SMD N 00888000
Ne 0 ""
Po 0.9525 1.09982
$EndPAD
$PAD
Sh "1" R 0.8001 1.00076 0 0 0
Dr 0 0 0
At SMD N 00888000
Ne 0 ""
Po -0.9525 1.09982
$EndPAD
$SHAPE3D
Na "smd\\SOT23_3.wrl"
Sc 0.4 0.4 0.4
Of 0 0 0
Ro 0 0 180
$EndSHAPE3D
$EndMODULE SOT23-rubi
$MODULE SOT23-zener
Po 0 0 0 15 5BEBF08D 00000000 ~~
Li SOT23-zener
Kw SOT23
Sc 0
AR /55F32299
Op 0 0 0
T0 1.99898 -0.09906 0.7 0.7 900 0.14 N V 21 N "Q2"
T1 0.0635 0 0.5 0.5 0 0.08 N V 21 N "Zener"
DC -1.17602 0.35052 -1.30048 0.44958 0.07874 21
DS 1.27 -0.508 1.27 0.508 0.07874 21
DS -1.3335 -0.508 -1.3335 0.508 0.07874 21
DS 1.27 0.508 -1.3335 0.508 0.07874 21
DS -1.3335 -0.508 1.27 -0.508 0.07874 21
$PAD
Sh "2" R 0.8001 1.00076 0 0 0
Dr 0 0 0
At SMD N 00888000
Ne 0 ""
Po 0 -1.09982
$EndPAD
$PAD
Sh "~" R 0.8001 1.00076 0 0 0
Dr 0 0 0
At SMD N 00888000
Ne 0 ""
Po 0.9525 1.09982
$EndPAD
$PAD
Sh "1" R 0.8001 1.00076 0 0 0
Dr 0 0 0
At SMD N 00888000
Ne 0 ""
Po -0.9525 1.09982
$EndPAD
$SHAPE3D
Na "smd\\SOT23_3.wrl"
Sc 0.4 0.4 0.4
Of 0 0 0
Ro 0 0 180
$EndSHAPE3D
$EndMODULE SOT23-zener
$MODULE TP-1mm
Po 0 0 0 15 5B20C74C 00000000 ~~
Li TP-1mm
Sc 0
AR /55E97763
Op 0 0 0
T0 0 1.27 0.7 0.7 0 0.14 N V 21 N "TP?"
T1 0 -2.54 1 1 0 0.15 N I 21 N "TEST-POINT"
$PAD
Sh "1" C 1 1 0 0 0
Dr 0 0 0
At SMD N 00808000
Ne 0 ""
Po 0 0
$EndPAD
$EndMODULE TP-1mm
$MODULE TP-1mm-hole
Po 0 0 0 15 5B50371D 00000000 ~~
Li TP-1mm-hole
Sc 0
AR /55E97763
Op 0 0 0
T0 0 1.7 0.5 0.5 0 0.1 N I 21 N "TP?"
T1 0 -2 0.4 0.4 0 0.08 N I 21 N "TEST-POINT"
$PAD
Sh "1" R 1.5 1.5 0 0 0
Dr 1 0 0
At STD N 00E0FFFF
Ne 0 ""
Po 0 0
$EndPAD
$EndMODULE TP-1mm-hole
$MODULE TP-2mm
Po 0 0 0 15 5B20C75E 00000000 ~~
Li TP-2mm
Sc 0
AR /55E97763
Op 0 0 0
T0 0 1.778 0.7 0.7 0 0.14 N V 21 N "TP?"
T1 0 -2.54 1 1 0 0.15 N I 21 N "TEST-POINT"
$PAD
Sh "1" C 2 2 0 0 0
Dr 0 0 0
At SMD N 00808000
Ne 0 ""
Po 0 0
$EndPAD
$EndMODULE TP-2mm
$MODULE TUW-5-resistor
Po 0 0 0 15 5BE686E7 00000000 ~~
Li TUW-5-resistor
Sc 0
AR 
Op 0 0 0
T0 0 -4 1 1 0 0.15 N V 21 N "TUW-5-resistor"
T1 0 4 1 1 0 0.15 N V 21 N "VAL**"
DS -12.5 -5 12.5 -5 0.15 21
DS 12.5 5 -12.5 5 0.15 21
DS 12.5 5 12.5 -5 0.15 21
DS -12.5 -5 -12.5 5 0.15 21
$PAD
Sh "1" C 2.2 2.2 0 0 0
Dr 1.2 0 0
At STD N 00E0FFFF
Ne 0 ""
Po -15 0
$EndPAD
$PAD
Sh "2" C 2.2 2.2 0 0 0
Dr 1.2 0 0
At STD N 00E0FFFF
Ne 0 ""
Po 15 0
$EndPAD
$EndMODULE TUW-5-resistor
$MODULE TUW-7-resistor
Po 0 0 0 15 5A97E82D 00000000 ~~
Li TUW-7-resistor
Sc 0
AR 
Op 0 0 0
T0 0 -4 1 1 0 0.15 N V 21 N "TUW-7-resistor"
T1 0 4 1 1 0 0.15 N V 21 N "VAL**"
DS -17.5 -5 17.5 -5 0.15 21
DS 17.5 -5 17.5 5 0.15 21
DS 17.5 5 -17.5 5 0.15 21
DS -17.5 5 -17.5 -5 0.15 21
$PAD
Sh "1" C 2 2 0 0 0
Dr 1 0 0
At STD N 00E0FFFF
Ne 0 ""
Po -22.5 0
$EndPAD
$PAD
Sh "2" C 2 2 0 0 0
Dr 1 0 0
At STD N 00E0FFFF
Ne 0 ""
Po 22.5 0
$EndPAD
$EndMODULE TUW-7-resistor
$MODULE Xtal-smd-12mm
Po 0 0 0 15 56F54434 00000000 ~~
Li Xtal-smd-12mm
Sc 0
AR /55F1C77F
Op 0 0 0
T0 0 -3.302 0.7 0.7 0 0.14 N V 21 N "X?"
T1 -9.004 -2.416 1 0.7 0 0.14 N V 21 N "16MHz"
DS -6 -2.5 6 -2.5 0.15 21
DS 6 -2.5 6 2.5 0.15 21
DS 6 2.5 -6 2.5 0.15 21
DS -6 2.5 -6 -2.5 0.15 21
$PAD
Sh "1" R 5 2 0 0 0
Dr 0 0 0
At SMD N 00888000
Ne 0 ""
Po -4.5 0
$EndPAD
$PAD
Sh "2" R 5 2 0 0 0
Dr 0 0 0
At SMD N 00888000
Ne 0 ""
Po 4.5 0
$EndPAD
$EndMODULE Xtal-smd-12mm
$MODULE breadboard-6x6
Po 0 0 0 15 5A92773C 00000000 ~~
Li breadboard-6x6
Sc 0
AR 
Op 0 0 0
T0 0 -8.89 1 1 0 0.15 N I 21 N "breadboard-6x6"
T1 5.08 8.89 1 1 0 0.15 N I 21 N "VAL**"
$PAD
Sh "1" R 2 2 0 0 0
Dr 1.2 0 0
At STD N 00E0FFFF
Ne 0 ""
Po -6.35 -6.35
$EndPAD
$PAD
Sh "2" R 2 2 0 0 0
Dr 1.2 0 0
At STD N 00E0FFFF
Ne 0 ""
Po -3.81 -6.35
$EndPAD
$PAD
Sh "3" R 2 2 0 0 0
Dr 1.2 0 0
At STD N 00E0FFFF
Ne 0 ""
Po -1.27 -6.35
$EndPAD
$PAD
Sh "4" R 2 2 0 0 0
Dr 1.2 0 0
At STD N 00E0FFFF
Ne 0 ""
Po 1.27 -6.35
$EndPAD
$PAD
Sh "5" R 2 2 0 0 0
Dr 1.2 0 0
At STD N 00E0FFFF
Ne 0 ""
Po 3.81 -6.35
$EndPAD
$PAD
Sh "6" R 2 2 0 0 0
Dr 1.2 0 0
At STD N 00E0FFFF
Ne 0 ""
Po 6.35 -6.35
$EndPAD
$PAD
Sh "7" R 2 2 0 0 0
Dr 1.2 0 0
At STD N 00E0FFFF
Ne 0 ""
Po -6.35 -3.81
$EndPAD
$PAD
Sh "8" R 2 2 0 0 0
Dr 1.2 0 0
At STD N 00E0FFFF
Ne 0 ""
Po -3.81 -3.81
$EndPAD
$PAD
Sh "9" R 2 2 0 0 0
Dr 1.2 0 0
At STD N 00E0FFFF
Ne 0 ""
Po -1.27 -3.81
$EndPAD
$PAD
Sh "10" R 2 2 0 0 0
Dr 1.2 0 0
At STD N 00E0FFFF
Ne 0 ""
Po 1.27 -3.81
$EndPAD
$PAD
Sh "11" R 2 2 0 0 0
Dr 1.2 0 0
At STD N 00E0FFFF
Ne 0 ""
Po 3.81 -3.81
$EndPAD
$PAD
Sh "12" R 2 2 0 0 0
Dr 1.2 0 0
At STD N 00E0FFFF
Ne 0 ""
Po 6.35 -3.81
$EndPAD
$PAD
Sh "13" R 2 2 0 0 0
Dr 1.2 0 0
At STD N 00E0FFFF
Ne 0 ""
Po -6.35 -1.27
$EndPAD
$PAD
Sh "14" R 2 2 0 0 0
Dr 1.2 0 0
At STD N 00E0FFFF
Ne 0 ""
Po -3.81 -1.27
$EndPAD
$PAD
Sh "15" R 2 2 0 0 0
Dr 1.2 0 0
At STD N 00E0FFFF
Ne 0 ""
Po -1.27 -1.27
$EndPAD
$PAD
Sh "16" R 2 2 0 0 0
Dr 1.2 0 0
At STD N 00E0FFFF
Ne 0 ""
Po 1.27 -1.27
$EndPAD
$PAD
Sh "17" R 2 2 0 0 0
Dr 1.2 0 0
At STD N 00E0FFFF
Ne 0 ""
Po 3.81 -1.27
$EndPAD
$PAD
Sh "18" R 2 2 0 0 0
Dr 1.2 0 0
At STD N 00E0FFFF
Ne 0 ""
Po 6.35 -1.27
$EndPAD
$PAD
Sh "19" R 2 2 0 0 0
Dr 1.2 0 0
At STD N 00E0FFFF
Ne 0 ""
Po -6.35 1.27
$EndPAD
$PAD
Sh "20" R 2 2 0 0 0
Dr 1.2 0 0
At STD N 00E0FFFF
Ne 0 ""
Po -3.81 1.27
$EndPAD
$PAD
Sh "21" R 2 2 0 0 0
Dr 1.2 0 0
At STD N 00E0FFFF
Ne 0 ""
Po -1.27 1.27
$EndPAD
$PAD
Sh "22" R 2 2 0 0 0
Dr 1.2 0 0
At STD N 00E0FFFF
Ne 0 ""
Po 1.27 1.27
$EndPAD
$PAD
Sh "23" R 2 2 0 0 0
Dr 1.2 0 0
At STD N 00E0FFFF
Ne 0 ""
Po 3.81 1.27
$EndPAD
$PAD
Sh "24" R 2 2 0 0 0
Dr 1.2 0 0
At STD N 00E0FFFF
Ne 0 ""
Po 6.35 1.27
$EndPAD
$PAD
Sh "25" R 2 2 0 0 0
Dr 1.2 0 0
At STD N 00E0FFFF
Ne 0 ""
Po -6.35 3.81
$EndPAD
$PAD
Sh "26" R 2 2 0 0 0
Dr 1.2 0 0
At STD N 00E0FFFF
Ne 0 ""
Po -3.81 3.81
$EndPAD
$PAD
Sh "27" R 2 2 0 0 0
Dr 1.2 0 0
At STD N 00E0FFFF
Ne 0 ""
Po -1.27 3.81
$EndPAD
$PAD
Sh "28" R 2 2 0 0 0
Dr 1.2 0 0
At STD N 00E0FFFF
Ne 0 ""
Po 1.27 3.81
$EndPAD
$PAD
Sh "29" R 2 2 0 0 0
Dr 1.2 0 0
At STD N 00E0FFFF
Ne 0 ""
Po 3.81 3.81
$EndPAD
$PAD
Sh "30" R 2 2 0 0 0
Dr 1.2 0 0
At STD N 00E0FFFF
Ne 0 ""
Po 6.35 3.81
$EndPAD
$PAD
Sh "31" R 2 2 0 0 0
Dr 1.2 0 0
At STD N 00E0FFFF
Ne 0 ""
Po -6.35 6.35
$EndPAD
$PAD
Sh "32" R 2 2 0 0 0
Dr 1.2 0 0
At STD N 00E0FFFF
Ne 0 ""
Po -3.81 6.35
$EndPAD
$PAD
Sh "33" R 2 2 0 0 0
Dr 1.2 0 0
At STD N 00E0FFFF
Ne 0 ""
Po -1.27 6.35
$EndPAD
$PAD
Sh "34" R 2 2 0 0 0
Dr 1.2 0 0
At STD N 00E0FFFF
Ne 0 ""
Po 1.27 6.35
$EndPAD
$PAD
Sh "35" R 2 2 0 0 0
Dr 1.2 0 0
At STD N 00E0FFFF
Ne 0 ""
Po 3.81 6.35
$EndPAD
$PAD
Sh "36" R 2 2 0 0 0
Dr 1.2 0 0
At STD N 00E0FFFF
Ne 0 ""
Po 6.35 6.35
$EndPAD
$EndMODULE breadboard-6x6
$MODULE button-smd-2p
Po 0 0 0 15 5AF29760 00000000 ~~
Li button-smd-2p
Sc 0
AR 
Op 0 0 0
T0 0.5 2.5 0.7 0.7 0 0.1 N V 21 N "button-smd-2p"
T1 0 -2.5 0.7 0.7 0 0.14 N V 21 N "VAL**"
DS -1 -0.5 -1 0.5 0.15 21
DS -1 0.5 1 0.5 0.15 21
DS 1 0.5 1 -0.5 0.15 21
DS 1 -0.5 -1 -0.5 0.15 21
DS -3 -1.5 -3 1.5 0.15 21
DS -3 1.5 3 1.5 0.15 21
DS 3 1.5 3 -1.5 0.15 21
DS 3 -1.5 -3 -1.5 0.15 21
$PAD
Sh "1" R 1.5 1 0 0 0
Dr 0 0 0
At SMD N 00888000
Ne 0 ""
Po -3.5 0
$EndPAD
$PAD
Sh "2" R 1.5 1 0 0 0
Dr 0 0 0
At SMD N 00888000
Ne 0 ""
Po 3.5 0
$EndPAD
$EndMODULE button-smd-2p
$MODULE buzzer
Po 0 0 0 15 57EFE97E 00000000 ~~
Li buzzer
Sc 0
AR 
Op 0 0 0
T0 0 3.81 1.524 1.524 0 0.3048 N V 21 N "buzzer"
T1 0 -3.81 1.524 1.524 0 0.3048 N V 21 N "Val**"
DC 0 0 0 -6.35 0.381 21
$PAD
Sh "1" R 1.524 1.524 0 0 0
Dr 1 0 0
At STD N 00E0FFFF
Ne 0 ""
Po -2.5 0
$EndPAD
$PAD
Sh "2" R 1.524 1.524 0 0 0
Dr 1 0 0
At STD N 00E0FFFF
Ne 0 ""
Po 2.5 0
$EndPAD
$EndMODULE buzzer
$MODULE choke-tdk
Po 0 0 0 15 59B59BF1 00000000 ~~
Li choke-tdk
Sc 0
AR 
Op 0 0 0
T0 0 -4.5 0.7 0.7 0 0.14 N V 21 N "choke-tdk"
T1 0 4.5 0.7 0.7 0 0.14 N V 21 N "VAL**"
DS -4.5 -3.5 4.5 -3.5 0.1 21
DS 4.5 -3.5 4.5 3.5 0.1 21
DS 4.5 3.5 -4.5 3.5 0.1 21
DS -4.5 3.5 -4.5 -3.5 0.1 21
$PAD
Sh "1" R 2.5 1.5 0 0 0
Dr 0 0 0
At SMD N 00888000
Ne 0 ""
Po -4.25 -1.75
$EndPAD
$PAD
Sh "2" R 2.5 1.5 0 0 0
Dr 0 0 0
At SMD N 00888000
Ne 0 ""
Po -4.25 1.5
$EndPAD
$PAD
Sh "3" R 2.5 1.5 0 0 0
Dr 0 0 0
At SMD N 00888000
Ne 0 ""
Po 4.25 1.5
$EndPAD
$PAD
Sh "4" R 2.5 1.5 0 0 0
Dr 0 0 0
At SMD N 00888000
Ne 0 ""
Po 4.25 -1.75
$EndPAD
$EndMODULE choke-tdk
$MODULE diode-power
Po 0 0 0 15 5A9093D7 00000000 ~~
Li diode-power
Sc 0
AR 
Op 0 0 0
T0 0 -3 0.7 0.7 0 0.14 N V 21 N "diode-power"
T1 0 5.5 0.7 0.7 0 0.14 N V 21 N "VAL**"
DS -7 -2 2 -2 0.15 21
DS 2 -2 2 -4 0.15 21
DS 2 -4 5 0 0.15 21
DS 5 0 2 4 0.15 21
DS 2 4 2 2 0.15 21
DS 2 2 -7 2 0.15 21
DS -7 2 -7 -2 0.15 21
$PAD
Sh "1" C 3 3 0 0 0
Dr 1.5 0 0
At STD N 00E0FFFF
Ne 0 ""
Po -5 0
$EndPAD
$PAD
Sh "2" C 3 3 0 0 0
Dr 1.5 0 0
At STD N 00E0FFFF
Ne 0 ""
Po 5 0
$EndPAD
$EndMODULE diode-power
$MODULE fiducial
Po 0 0 0 15 5B4A5A6D 00000000 ~~
Li fiducial
Sc 0
AR 
Op 0 0 0
T0 0 -2.54 0.5 0.5 0 0.1 N V 21 N "fiducial"
T1 0 4.445 1 1 0 0.15 N I 21 N "VAL**"
$PAD
Sh "~" C 1 1 0 0 0
Dr 0 0 0
At SMD N 00808000
Ne 0 ""
Po 0 0
.SolderMask 1
.LocalClearance 1
.ZoneConnection 0
$EndPAD
$PAD
Sh "~" C 1 1 0 0 0
Dr 0 0 0
At SMD N 00400001
Ne 0 ""
Po 0 0
.SolderMask 1
.LocalClearance 1
$EndPAD
$EndMODULE fiducial
$MODULE fuse-5x15mm
Po 0 0 0 15 5BEAC25B 00000000 ~~
Li fuse-5x15mm
Sc 0
AR 
Op 0 0 0
T0 0 2 0.7 0.7 0 0.14 N V 21 N "fuse-5x15mm"
T1 0 -1.6 0.7 0.7 0 0.14 N I 21 N "VAL**"
DS -8.85 -3 -8.85 3 0.15 21
DS -8.85 3 8.85 3 0.15 21
DS 8.85 3 8.85 -3 0.15 21
DS 8.85 -3 -8.85 -3 0.15 21
$PAD
Sh "1" C 2 2 0 0 0
Dr 1.2 0 0
At STD N 00E0FFFF
Ne 0 ""
Po -6.35 -2.5
$EndPAD
$PAD
Sh "1" C 2 2 0 0 0
Dr 1.2 0 0
At STD N 00E0FFFF
Ne 0 ""
Po -6.35 2.5
$EndPAD
$PAD
Sh "2" C 2 2 0 0 0
Dr 1.2 0 0
At STD N 00E0FFFF
Ne 0 ""
Po 6.35 -2.5
$EndPAD
$PAD
Sh "2" C 2 2 0 0 0
Dr 1.2 0 0
At STD N 00E0FFFF
Ne 0 ""
Po 6.35 2.5
$EndPAD
$EndMODULE fuse-5x15mm
$MODULE hole-3mm
Po 0 0 0 15 5A9163CB 00000000 ~~
Li hole-3mm
Sc 0
AR 
Op 0 0 0
T0 0 -2.5 1 1 0 0.15 N I 21 N "hole-3mm"
T1 0 2 1 1 0 0.15 N I 21 N "VAL**"
$PAD
Sh "1" C 6 6 0 0 0
Dr 3.1 0 0
At STD N 00E0FFFF
Ne 0 ""
Po 0 0
.ZoneConnection 2
$EndPAD
$EndMODULE hole-3mm
$MODULE hole-4mm
Po 0 0 0 15 5AAE7726 00000000 ~~
Li hole-4mm
Sc 0
AR 
Op 0 0 0
T0 0 -2.5 1 1 0 0.15 N I 21 N "hole-3mm"
T1 0 2 1 1 0 0.15 N I 21 N "VAL**"
$PAD
Sh "1" C 8 8 0 0 0
Dr 4.1 0 0
At STD N 00E0FFFF
Ne 0 ""
Po 0 0
.ZoneConnection 2
$EndPAD
$EndMODULE hole-4mm
$MODULE led-rgb-rubi
Po 0 0 0 15 57040AD9 00000000 ~~
Li led-rgb-rubi
Sc 0
AR /56F4F08F/56F6CEF6
Op 0 0 0
T0 0 3.302 0.7 0.7 0 0.14 N V 21 N "U?"
T1 0.254 -3.302 0.7 0.7 0 0.14 N V 21 N "LED-RGB"
DS -0.5 -2.5 -2.5 -0.5 0.24892 21
DS -2.49936 -2.49936 2.49936 -2.49936 0.24892 21
DS 2.49936 -2.49936 2.49936 2.49936 0.24892 21
DS 2.49936 2.49936 -2.49936 2.49936 0.24892 21
DS -2.49936 2.49936 -2.49936 -2.4003 0.24892 21
$PAD
Sh "1" R 1.3 1.1 0 0 0
Dr 0 0 0
At SMD N 00888000
Ne 0 ""
Po -2.35 -1.6
$EndPAD
$PAD
Sh "2" R 1.3 1.1 0 0 0
Dr 0 0 0
At SMD N 00888000
Ne 0 ""
Po -2.35 0
$EndPAD
$PAD
Sh "3" R 1.3 1.1 0 0 0
Dr 0 0 0
At SMD N 00888000
Ne 0 ""
Po -2.35 1.6
$EndPAD
$PAD
Sh "4" R 1.3 1.1 0 0 0
Dr 0 0 0
At SMD N 00888000
Ne 0 ""
Po 2.35 1.6
$EndPAD
$PAD
Sh "5" R 1.3 1.1 0 0 0
Dr 0 0 0
At SMD N 00888000
Ne 0 ""
Po 2.35 0
$EndPAD
$PAD
Sh "6" R 1.3 1.1 0 0 0
Dr 0 0 0
At SMD N 00888000
Ne 0 ""
Po 2.35 -1.6
$EndPAD
$EndMODULE led-rgb-rubi
$MODULE relay-big
Po 0 0 0 15 561AAC20 00000000 ~~
Li relay-big
Sc 0
AR 
Op 0 0 0
T0 0 10 1 1 0 0.15 N V 21 N "relay-big"
T1 1 -10 1 1 0 0.15 N V 21 N "VAL**"
DS -10 -8 -10 8 0.15 21
DS -10 8 10 8 0.15 21
DS 10 8 10 -8 0.15 21
DS 10 -8 -10 -8 0.15 21
$PAD
Sh "1" C 2.5 2.5 0 0 0
Dr 1.5 0 0
At STD N 00E0FFFF
Ne 0 ""
Po -8.5 0
$EndPAD
$PAD
Sh "2" C 2 2 0 0 0
Dr 1.3 0 0
At STD N 00E0FFFF
Ne 0 ""
Po -6.5 6
$EndPAD
$PAD
Sh "3" C 2.5 2.5 0 0 0
Dr 1.5 0 0
At STD N 00E0FFFF
Ne 0 ""
Po 5.7 6
$EndPAD
$PAD
Sh "4" C 2.5 2.5 0 0 0
Dr 1.5 0 0
At STD N 00E0FFFF
Ne 0 ""
Po 5.7 -6
$EndPAD
$PAD
Sh "5" C 2 2 0 0 0
Dr 1.3 0 0
At STD N 00E0FFFF
Ne 0 ""
Po -6.5 -6
$EndPAD
$EndMODULE relay-big
$MODULE relay-ouaz
Po 0 0 0 15 5ABD8D11 00000000 ~~
Li relay-ouaz
Sc 0
AR 
Op 0 0 0
T0 3.81 6.35 1 1 0 0.15 N V 21 N "relay-ouaz"
T1 -5.08 6.35 1 1 0 0.15 N V 21 N "VAL**"
DS -7.62 -5.08 7.62 -5.08 0.15 21
DS 7.62 -5.08 7.62 3.81 0.15 21
DS 7.62 3.81 7.62 5.08 0.15 21
DS 7.62 5.08 -7.62 5.08 0.15 21
DS -7.62 5.08 -7.62 -5.08 0.15 21
$PAD
Sh "1" C 1.524 1.524 0 0 0
Dr 1.016 0 0
At STD N 00E0FFFF
Ne 0 ""
Po 6.35 -3.81
$EndPAD
$PAD
Sh "2" C 1.524 1.524 0 0 0
Dr 1.016 0 0
At STD N 00E0FFFF
Ne 0 ""
Po -3.81 -3.81
$EndPAD
$PAD
Sh "3" C 1.524 1.524 0 0 0
Dr 1.016 0 0
At STD N 00E0FFFF
Ne 0 ""
Po -3.81 3.81
$EndPAD
$PAD
Sh "4" C 1.524 1.524 0 0 0
Dr 1.016 0 0
At STD N 00E0FFFF
Ne 0 ""
Po -6.35 3.81
$EndPAD
$PAD
Sh "5" C 1.524 1.524 0 0 0
Dr 1.016 0 0
At STD N 00E0FFFF
Ne 0 ""
Po -6.35 -3.81
$EndPAD
$EndMODULE relay-ouaz
$MODULE relay-spst-g6dn
Po 0 0 0 15 603510CE 00000000 ~~
Li relay-spst-g6dn
Sc 0
AR 
Op 0 0 0
T0 4.445 2.54 0.5 0.5 0 0.1 N V 21 N "relay-spst-g6dn"
T1 -10.795 1.27 0.5 0.5 900 0.1 N V 21 N "VAL**"
DS 10.16 -1.27 -10.16 -1.27 0.1 21
DS -10.16 -1.27 -10.16 3.81 0.1 21
DS -10.16 3.81 10.16 3.81 0.1 21
DS 10.16 3.81 10.16 -1.27 0.1 21
$PAD
Sh "1" R 1.7 1.7 0 0 0
Dr 1.1 0 0
At STD N 00E0FFFF
Ne 0 ""
Po -8.89 0
$EndPAD
$PAD
Sh "2" R 1.7 1.7 0 0 0
Dr 1.1 0 0
At STD N 00E0FFFF
Ne 0 ""
Po -6.35 0
$EndPAD
$PAD
Sh "5" R 1.7 1.7 0 0 0
Dr 1.1 0 0
At STD N 00E0FFFF
Ne 0 ""
Po 1.27 0
$EndPAD
$PAD
Sh "8" R 1.7 1.7 0 0 0
Dr 1.1 0 0
At STD N 00E0FFFF
Ne 0 ""
Po 8.89 0
$EndPAD
$EndMODULE relay-spst-g6dn
$MODULE sc-75-rubi
Po 0 0 0 15 57056D1E 00000000 ~~
Li sc-75-rubi
Kw SOT23
Sc 0
AR /56F4F18C/5703FD0D
Op 0 0 0
T0 1.6 -0.1 0.762 0.762 900 0.11938 N V 21 N "Q5"
T1 -1.9 -0.6 0.50038 0.50038 0 0.09906 N V 21 N "PNP"
DS -0.8 -0.4 0.8 -0.4 0.07874 21
DS 0.8 -0.4 0.8 0.4 0.07874 21
DS 0.8 0.4 -0.8 0.4 0.07874 21
DS -0.8 0.4 -0.8 -0.4 0.07874 21
$PAD
Sh "1" R 0.4 0.6 0 0 0
Dr 0 0 0
At SMD N 00888000
Ne 0 ""
Po -0.5 0.7
$EndPAD
$PAD
Sh "2" R 0.4 0.6 0 0 0
Dr 0 0 0
At SMD N 00888000
Ne 0 ""
Po 0.5 0.7
$EndPAD
$PAD
Sh "3" R 0.4 0.6 0 0 0
Dr 0 0 0
At SMD N 00888000
Ne 0 ""
Po 0 -0.7
$EndPAD
$SHAPE3D
Na "smd\\SOT23_3.wrl"
Sc 0.4 0.4 0.4
Of 0 0 0
Ro 0 0 180
$EndSHAPE3D
$EndMODULE sc-75-rubi
$MODULE solder-jumper
Po 0 0 0 15 5AAE8850 00000000 ~~
Li solder-jumper
Sc 0
AR 
Op 0 0 0
.LocalClearance 0.15
T0 0 1.27 1 1 0 0.15 N V 21 N "solder-jumper"
T1 0 -1.27 1 1 0 0.15 N I 21 N "VAL**"
$PAD
Sh "1" R 1.5 1 0 0 0
Dr 0 0 0
At SMD N 00808000
Ne 0 ""
Po -0.85 0
$EndPAD
$PAD
Sh "2" R 1.5 1 0 0 0
Dr 0 0 0
At SMD N 00808000
Ne 0 ""
Po 0.85 0
$EndPAD
$EndMODULE solder-jumper
$MODULE solder-jumper3
Po 0 0 0 15 5AAE963A 00000000 ~~
Li solder-jumper3
Sc 0
AR 
Op 0 0 0
.LocalClearance 0.15
T0 0 1.27 1 1 0 0.15 N V 21 N "solder-jumper3"
T1 4.9 0.05 1 1 0 0.15 N I 21 N "VAL**"
$PAD
Sh "1" R 1.5 1 0 0 0
Dr 0 0 0
At SMD N 00808000
Ne 0 ""
Po -1.65 0
$EndPAD
$PAD
Sh "2" R 1.5 1 0 0 0
Dr 0 0 0
At SMD N 00808000
Ne 0 ""
Po 0.05 0
$EndPAD
$PAD
Sh "3" R 1.5 1 0 0 0
Dr 0 0 0
At SMD N 00808000
Ne 0 ""
Po 1.75 0
$EndPAD
$EndMODULE solder-jumper3
$MODULE supercap
Po 0 0 0 15 57EA85E5 00000000 ~~
Li supercap
Sc 0
AR 
Op 0 0 0
T0 -5.5 -7.5 1 1 0 0.15 N V 21 N "supercap"
T1 6.5 7 1 1 0 0.15 N V 21 N "VAL**"
DC 0 0 0 7.5 0.07874 21
$PAD
Sh "1" R 1 2 0 0 0
Dr 0.4 0 0 O 0.4 1.4
At STD N 00E0FFFF
Ne 0 ""
Po -2.54 0
$EndPAD
$PAD
Sh "2" R 1 2 0 0 0
Dr 0.4 0 0 O 0.4 1.4
At STD N 00E0FFFF
Ne 0 ""
Po 2.54 0
$EndPAD
$EndMODULE supercap
$MODULE trasf-rubi
Po 0 0 0 15 5AE12C28 00000000 ~~
Li trasf-rubi
Sc 0
AR 
Op 0 0 0
T0 -3.81 12.7 1 1 0 0.15 N V 21 N "trasf-rubi"
T1 8.89 12.7 1 1 0 0.15 N V 21 N "VAL**"
DS -11.43 7.62 11.43 7.62 0.15 21
DS -11.43 -7.62 11.43 -7.62 0.15 21
DS -11.43 -11.43 11.43 -11.43 0.15 21
DS 11.43 -11.43 11.43 11.43 0.15 21
DS 11.43 11.43 -11.43 11.43 0.15 21
DS -11.43 11.43 -11.43 -11.43 0.15 21
$PAD
Sh "1" C 1.8 1.8 0 0 0
Dr 1 0 0
At STD N 00E0FFFF
Ne 0 ""
Po -7.62 -7.62
$EndPAD
$PAD
Sh "2" C 1.8 1.8 0 0 0
Dr 1 0 0
At STD N 00E0FFFF
Ne 0 ""
Po -7.62 -2.54
$EndPAD
$PAD
Sh "3" C 1.8 1.8 0 0 0
Dr 1 0 0
At STD N 00E0FFFF
Ne 0 ""
Po -7.62 2.54
$EndPAD
$PAD
Sh "4" C 1.8 1.8 0 0 0
Dr 1 0 0
At STD N 00E0FFFF
Ne 0 ""
Po -7.62 7.62
$EndPAD
$PAD
Sh "5" C 1.8 1.8 0 0 0
Dr 1 0 0
At STD N 00E0FFFF
Ne 0 ""
Po 7.62 7.62
$EndPAD
$PAD
Sh "6" C 1.8 1.8 0 0 0
Dr 1 0 0
At STD N 00E0FFFF
Ne 0 ""
Po 7.62 2.54
$EndPAD
$PAD
Sh "7" C 1.8 1.8 0 0 0
Dr 1 0 0
At STD N 00E0FFFF
Ne 0 ""
Po 7.62 -2.54
$EndPAD
$PAD
Sh "8" C 1.8 1.8 0 0 0
Dr 1 0 0
At STD N 00E0FFFF
Ne 0 ""
Po 7.62 -7.62
$EndPAD
$EndMODULE trasf-rubi
$MODULE trimmer
Po 0 0 0 15 57EACA72 00000000 ~~
Li trimmer
Sc 0
AR 
Op 0 0 0
T0 0 4.699 1 1 0 0.2 N V 21 N "trimmer"
T1 0 -4.191 1 1 0 0.2 N V 21 N "VAL**"
DS 0.95 -0.75 0.6 -0.75 0.15 21
DS 0.05 -0.05 0.95 -0.75 0.15 21
DS 0.95 -0.75 0.9 -0.4 0.15 21
DC 0.05 0 0.8 1.15 0.15 21
DS 1.55 -1.6 1.55 1.6 0.15 21
DS 1.55 1.6 -1.55 1.6 0.15 21
DS -1.55 1.6 -1.55 -1.6 0.15 21
DS -1.55 -1.6 1.55 -1.6 0.15 21
$PAD
Sh "1" R 0.8 0.8 0 0 0
Dr 0 0 0
At SMD N 00888000
Ne 0 ""
Po -0.9 1.6
$EndPAD
$PAD
Sh "2" R 0.8 0.8 0 0 0
Dr 0 0 0
At SMD N 00888000
Ne 0 ""
Po 0.05 -1.6
$EndPAD
$PAD
Sh "3" R 0.8 0.8 0 0 0
Dr 0 0 0
At SMD N 00888000
Ne 0 ""
Po 0.9 1.6
$EndPAD
$EndMODULE trimmer
$MODULE trimmer-38x36
Po 0 0 0 15 5BCC6C88 00000000 ~~
Li trimmer-38x36
Sc 0
AR 
Op 0 0 0
T0 0 4.699 1 1 0 0.2 N V 21 N "trimmer"
T1 0 -4.191 1 1 0 0.2 N V 21 N "VAL**"
DS 0.95 -0.75 0.6 -0.75 0.15 21
DS 0.05 -0.05 0.95 -0.75 0.15 21
DS 0.95 -0.75 0.9 -0.4 0.15 21
DC 0.05 0 0.8 1.15 0.15 21
DS 1.55 -1.6 1.55 1.6 0.15 21
DS 1.55 1.6 -1.55 1.6 0.15 21
DS -1.55 1.6 -1.55 -1.6 0.15 21
DS -1.55 -1.6 1.55 -1.6 0.15 21
$PAD
Sh "1" R 1.2 1.5 0 0 0
Dr 0 0 0
At SMD N 00888000
Ne 0 ""
Po -1 1.95
$EndPAD
$PAD
Sh "2" R 1.6 1.8 0 0 0
Dr 0 0 0
At SMD N 00888000
Ne 0 ""
Po 0.05 -1.6
$EndPAD
$PAD
Sh "3" R 1.2 1.5 0 0 0
Dr 0 0 0
At SMD N 00888000
Ne 0 ""
Po 1 1.95
$EndPAD
$EndMODULE trimmer-38x36
$MODULE trimmer-big
Po 0 0 0 15 5B243DBD 00000000 ~~
Li trimmer-big
Sc 0
AR 
Op 0 0 0
T0 0 7.62 1 1 0 0.2 N I 21 N "trimmer-big"
T1 0 -7.62 0.7 0.7 0 0.14 N V 21 N "VAL**"
DS -3.81 -1.27 -1.27 -3.81 0.15 21
DS -1.27 -3.81 1.27 -3.81 0.15 21
DS 1.27 -3.81 3.81 -1.27 0.15 21
DS -3.81 6.35 3.81 6.35 0.15 21
DS 3.81 6.35 3.81 -1.27 0.15 21
DS -3.81 -1.27 -3.81 6.35 0.15 21
$PAD
Sh "1" O 2.1 1.6 0 0 0
Dr 1.5 0 0 O 1.5 1
At STD N 00E0FFFF
Ne 0 ""
Po -2.54 5.08
$EndPAD
$PAD
Sh "2" O 2.1 1.6 0 0 0
Dr 1.5 0 0 O 1.5 1
At STD N 00E0FFFF
Ne 0 ""
Po 0 -5.08
$EndPAD
$PAD
Sh "3" O 2.1 1.6 0 0 0
Dr 1.5 0 0 O 1.5 1
At STD N 00E0FFFF
Ne 0 ""
Po 2.54 5.08
$EndPAD
$EndMODULE trimmer-big
$MODULE xtal-32768
Po 0 0 0 15 57EA880E 00000000 ~~
Li xtal-32768
Sc 0
AR 
Op 0 0 0
T0 0 3.81 1 1 0 0.15 N V 21 N "xtal-32768"
T1 3 -3 1 1 0 0.15 N V 21 N "VAL**"
DS 0.5 -1.75 0.5 -2 0.07874 21
DS 0.5 -2 0.5 -0.75 0.07874 21
DS -0.5 -2 -0.5 -1 0.07874 21
DS -0.5 -1 -0.5 -0.75 0.07874 21
DS -1.5 -2 1.5 -2 0.07874 21
DS 1.5 -2 1.5 -10 0.07874 21
DS 1.5 -10 -1.5 -10 0.07874 21
DS -1.5 -10 -1.5 -2 0.07874 21
$PAD
Sh "1" R 0.6 1 0 0 0
Dr 0.5 0 0
At STD N 00E0FFFF
Ne 0 ""
Po -0.4 0
$EndPAD
$PAD
Sh "2" R 0.6 1 0 0 0
Dr 0.5 0 0
At STD N 00E0FFFF
Ne 0 ""
Po 0.4 0
$EndPAD
$EndMODULE xtal-32768
$EndLIBRARY
