(export (version D)
  (design
    (source /home/rubini/wip/hsw2021/hw/tdc/tdc.sch)
    (date "Wed Mar 10 08:14:49 2021")
    (tool "eeschema (22-Jun-2014 BZR 4027)-stable"))
  (components
    (comp (ref R6)
      (value 33)
      (libsource (lib rubi-discrete) (part R-SMALL))
      (sheetpath (names /) (tstamps /))
      (tstamp 5BF3EE6E))
    (comp (ref R7)
      (value 33)
      (libsource (lib rubi-discrete) (part R-SMALL))
      (sheetpath (names /) (tstamps /))
      (tstamp 5BF3EE74))
    (comp (ref C1)
      (value 100n)
      (libsource (lib rubi-discrete) (part CSMALL))
      (sheetpath (names /) (tstamps /))
      (tstamp 5BF3EE81))
    (comp (ref C2)
      (value 100n)
      (libsource (lib rubi-discrete) (part CSMALL))
      (sheetpath (names /) (tstamps /))
      (tstamp 5BF3EE87))
    (comp (ref Q1)
      (value DTA114)
      (libsource (lib rubi-discrete) (part 3906))
      (sheetpath (names /) (tstamps /))
      (tstamp 5BF3EE9B))
    (comp (ref R5)
      (value 1k5)
      (libsource (lib rubi-discrete) (part R-SMALL))
      (sheetpath (names /) (tstamps /))
      (tstamp 5BF3EEA2))
    (comp (ref R4)
      (value 1k5)
      (libsource (lib rubi-discrete) (part R-SMALL))
      (sheetpath (names /) (tstamps /))
      (tstamp 5BF3EEB8))
    (comp (ref R3)
      (value 1k5)
      (libsource (lib rubi-discrete) (part R-SMALL))
      (sheetpath (names /) (tstamps /))
      (tstamp 5BF3EEBE))
    (comp (ref U2)
      (value 12MHz)
      (libsource (lib rubi-ic) (part OSC-4PIN))
      (sheetpath (names /) (tstamps /))
      (tstamp 5BF3EF12))
    (comp (ref J9)
      (value USB-MINI-B)
      (libsource (lib conn) (part USB-MINI-B))
      (sheetpath (names /) (tstamps /))
      (tstamp 5BF3EF2B))
    (comp (ref J7)
      (value UEXT)
      (libsource (lib rubi-conn) (part UEXT))
      (sheetpath (names /) (tstamps /))
      (tstamp 5BF3EFEA))
    (comp (ref U4)
      (value 78L05)
      (libsource (lib rubi-ic) (part 78L05))
      (sheetpath (names /) (tstamps /))
      (tstamp 5BF3F012))
    (comp (ref R8)
      (value 4k7)
      (libsource (lib rubi-discrete) (part R-SMALL))
      (sheetpath (names /) (tstamps /))
      (tstamp 5BF3F018))
    (comp (ref R9)
      (value 10k)
      (libsource (lib rubi-discrete) (part R-SMALL))
      (sheetpath (names /) (tstamps /))
      (tstamp 5BF3F01E))
    (comp (ref J4)
      (value CONN-3.5MM)
      (footprint conn-3.5mm)
      (libsource (lib rubi-conn) (part CONN-3.5MM))
      (sheetpath (names /) (tstamps /))
      (tstamp 5BF3F03C))
    (comp (ref U3)
      (value AP2111H)
      (libsource (lib rubi-ic) (part AP2111H))
      (sheetpath (names /) (tstamps /))
      (tstamp 5BF3F0A6))
    (comp (ref C4)
      (value 22uF)
      (libsource (lib rubi-discrete) (part C))
      (sheetpath (names /) (tstamps /))
      (tstamp 5BF3F0B8))
    (comp (ref C3)
      (value 22uF)
      (libsource (lib rubi-discrete) (part C))
      (sheetpath (names /) (tstamps /))
      (tstamp 5BF3F0C4))
    (comp (ref D3)
      (value green)
      (libsource (lib rubi-discrete) (part LED))
      (sheetpath (names /) (tstamps /))
      (tstamp 5BF3F12F))
    (comp (ref D4)
      (value orange)
      (libsource (lib rubi-discrete) (part LED))
      (sheetpath (names /) (tstamps /))
      (tstamp 5BF3F135))
    (comp (ref R12)
      (value 470)
      (libsource (lib rubi-discrete) (part R-SMALL))
      (sheetpath (names /) (tstamps /))
      (tstamp 5BF3F13B))
    (comp (ref R13)
      (value 470)
      (libsource (lib rubi-discrete) (part R-SMALL))
      (sheetpath (names /) (tstamps /))
      (tstamp 5BF3F141))
    (comp (ref H1)
      (value 3mm)
      (libsource (lib rubi-discrete) (part HOLE-3MM))
      (sheetpath (names /) (tstamps /))
      (tstamp 5BF3F259))
    (comp (ref H2)
      (value 3mm)
      (libsource (lib rubi-discrete) (part HOLE-3MM))
      (sheetpath (names /) (tstamps /))
      (tstamp 5BF3F25F))
    (comp (ref H3)
      (value 3mm)
      (libsource (lib rubi-discrete) (part HOLE-3MM))
      (sheetpath (names /) (tstamps /))
      (tstamp 5BF3F265))
    (comp (ref H4)
      (value 3mm)
      (libsource (lib rubi-discrete) (part HOLE-3MM))
      (sheetpath (names /) (tstamps /))
      (tstamp 5BF3F26B))
    (comp (ref R2)
      (value 1k5)
      (libsource (lib rubi-discrete) (part R-SMALL))
      (sheetpath (names /) (tstamps /))
      (tstamp 5BF3F292))
    (comp (ref R1)
      (value 1k5)
      (libsource (lib rubi-discrete) (part R-SMALL))
      (sheetpath (names /) (tstamps /))
      (tstamp 5BF3F298))
    (comp (ref J1)
      (value STRIP-3)
      (libsource (lib rubi-conn) (part STRIP-3))
      (sheetpath (names /) (tstamps /))
      (tstamp 5BF3F2A8))
    (comp (ref J3)
      (value JTAG)
      (libsource (lib rubi-conn) (part FLAT20))
      (sheetpath (names /) (tstamps /))
      (tstamp 5BF3F2C1))
    (comp (ref U1)
      (value LPC11U24FBD48)
      (footprint LQFP48)
      (libsource (lib rubi-cpu) (part LPC11U24FBD48))
      (sheetpath (names /) (tstamps /))
      (tstamp 5BF3F328))
    (comp (ref C6)
      (value 22uF)
      (libsource (lib rubi-discrete) (part CSMALL))
      (sheetpath (names /) (tstamps /))
      (tstamp 5BF3F35F))
    (comp (ref R10)
      (value 1k5)
      (libsource (lib rubi-discrete) (part R-SMALL))
      (sheetpath (names /) (tstamps /))
      (tstamp 5BF3F3DB))
    (comp (ref D1)
      (value red)
      (libsource (lib rubi-discrete) (part LED))
      (sheetpath (names /) (tstamps /))
      (tstamp 5BF3F3E1))
    (comp (ref U6)
      (value 24AA64F)
      (libsource (lib rubi-ic) (part 24AA64F))
      (sheetpath (names /) (tstamps /))
      (tstamp 5BF4039B))
    (comp (ref D2)
      (value yellow)
      (libsource (lib rubi-discrete) (part LED))
      (sheetpath (names /) (tstamps /))
      (tstamp 5BF40917))
    (comp (ref R11)
      (value 470)
      (libsource (lib rubi-discrete) (part R-SMALL))
      (sheetpath (names /) (tstamps /))
      (tstamp 5BF4091D))
    (comp (ref J5)
      (value TDC-in)
      (libsource (lib rubi-conn) (part FLAT10))
      (sheetpath (names /) (tstamps /))
      (tstamp 5BF40FC7))
    (comp (ref J6)
      (value PPS-in)
      (libsource (lib rubi-conn) (part STRIP-2))
      (sheetpath (names /) (tstamps /))
      (tstamp 5BF41310))
    (comp (ref J2)
      (value UART-3v3)
      (libsource (lib rubi-conn) (part STRIP-3))
      (sheetpath (names /) (tstamps /))
      (tstamp 5BF41553))
    (comp (ref R14)
      (value 1R0)
      (libsource (lib rubi-discrete) (part R-SMALL))
      (sheetpath (names /) (tstamps /))
      (tstamp 5BF42910))
    (comp (ref U7)
      (value MCP4728)
      (libsource (lib rubi-ic) (part MCP4728))
      (sheetpath (names /) (tstamps /))
      (tstamp 5BF43A88))
    (comp (ref C5)
      (value 100n)
      (libsource (lib rubi-discrete) (part CSMALL))
      (sheetpath (names /) (tstamps /))
      (tstamp 5BF43A90))
    (comp (ref U8)
      (value TS3702)
      (libsource (lib rubi-ic) (part TS3702))
      (sheetpath (names /) (tstamps /))
      (tstamp 5BF43ABE))
    (comp (ref R15)
      (value 4k7)
      (libsource (lib rubi-discrete) (part R-SMALL))
      (sheetpath (names /) (tstamps /))
      (tstamp 5BF43BEE))
    (comp (ref R19)
      (value 4k7)
      (libsource (lib rubi-discrete) (part R-SMALL))
      (sheetpath (names /) (tstamps /))
      (tstamp 5BF43C00))
    (comp (ref R16)
      (value 4k7)
      (libsource (lib rubi-discrete) (part R-SMALL))
      (sheetpath (names /) (tstamps /))
      (tstamp 5BF43C1A))
    (comp (ref R21)
      (value 4k7)
      (libsource (lib rubi-discrete) (part R-SMALL))
      (sheetpath (names /) (tstamps /))
      (tstamp 5BF43C20))
    (comp (ref C8)
      (value C)
      (libsource (lib rubi-discrete) (part C))
      (sheetpath (names /) (tstamps /))
      (tstamp 5BF443EA))
    (comp (ref R17)
      (value 4k7)
      (libsource (lib rubi-discrete) (part R-SMALL))
      (sheetpath (names /) (tstamps /))
      (tstamp 5BF449A2))
    (comp (ref R20)
      (value 4k7)
      (libsource (lib rubi-discrete) (part R-SMALL))
      (sheetpath (names /) (tstamps /))
      (tstamp 5BF449A8))
    (comp (ref R18)
      (value 4k7)
      (libsource (lib rubi-discrete) (part R-SMALL))
      (sheetpath (names /) (tstamps /))
      (tstamp 5BF449AE))
    (comp (ref R22)
      (value 4k7)
      (libsource (lib rubi-discrete) (part R-SMALL))
      (sheetpath (names /) (tstamps /))
      (tstamp 5BF449B4))
    (comp (ref C9)
      (value C)
      (libsource (lib rubi-discrete) (part C))
      (sheetpath (names /) (tstamps /))
      (tstamp 5BF449D3))
    (comp (ref D5)
      (value DIODESCH)
      (libsource (lib device) (part DIODESCH))
      (sheetpath (names /) (tstamps /))
      (tstamp 5BF4577C))
    (comp (ref J10)
      (value 12V-in)
      (libsource (lib rubi-conn) (part STRIP-2))
      (sheetpath (names /) (tstamps /))
      (tstamp 5BF45C1C))
    (comp (ref J11)
      (value dig-out)
      (libsource (lib rubi-conn) (part STRIP-2))
      (sheetpath (names /) (tstamps /))
      (tstamp 5BF46476))
    (comp (ref U9)
      (value flash-wson)
      (libsource (lib rubi-ic) (part SPI-FLASH-8))
      (sheetpath (names /) (tstamps /))
      (tstamp 5BF496CC))
    (comp (ref U5)
      (value flash-so8)
      (libsource (lib rubi-ic) (part SPI-FLASH-8))
      (sheetpath (names /) (tstamps /))
      (tstamp 5BF496E8))
    (comp (ref C10)
      (value 100n)
      (libsource (lib rubi-discrete) (part CSMALL))
      (sheetpath (names /) (tstamps /))
      (tstamp 5BF4C60D))
    (comp (ref U10)
      (value vcxo)
      (libsource (lib rubi-ic) (part OSC-6PIN))
      (sheetpath (names /) (tstamps /))
      (tstamp 5BF4CE59))
    (comp (ref J8)
      (value ana-out)
      (libsource (lib rubi-conn) (part STRIP-2))
      (sheetpath (names /) (tstamps /))
      (tstamp 60449A32))
    (comp (ref C7)
      (value 100n)
      (libsource (lib rubi-discrete) (part CSMALL))
      (sheetpath (names /) (tstamps /))
      (tstamp 6044A81D))
    (comp (ref U201)
      (value WS2812B)
      (libsource (lib rubi-ic) (part WS2812B))
      (sheetpath (names "/More I/O/") (tstamps /60448746/))
      (tstamp 604487D3))
    (comp (ref U202)
      (value WS2812B)
      (libsource (lib rubi-ic) (part WS2812B))
      (sheetpath (names "/More I/O/") (tstamps /60448746/))
      (tstamp 60448813))
    (comp (ref U203)
      (value WS2812B)
      (libsource (lib rubi-ic) (part WS2812B))
      (sheetpath (names "/More I/O/") (tstamps /60448746/))
      (tstamp 6044881E))
    (comp (ref Q201)
      (value 2N27002)
      (libsource (lib rubi-discrete) (part NMOS))
      (sheetpath (names "/More I/O/") (tstamps /60448746/))
      (tstamp 6044A0ED))
    (comp (ref R201)
      (value 1k5)
      (libsource (lib rubi-discrete) (part R-SMALL))
      (sheetpath (names "/More I/O/") (tstamps /60448746/))
      (tstamp 6044A12C))
    (comp (ref J201)
      (value analog-in)
      (libsource (lib rubi-conn) (part STRIP-6))
      (sheetpath (names "/More I/O/") (tstamps /60448746/))
      (tstamp 6044A68A))
    (comp (ref R202)
      (value 100k)
      (libsource (lib rubi-discrete) (part R-SMALL))
      (sheetpath (names "/More I/O/") (tstamps /60448746/))
      (tstamp 6044A6BB))
    (comp (ref R204)
      (value 47k)
      (libsource (lib rubi-discrete) (part R-SMALL))
      (sheetpath (names "/More I/O/") (tstamps /60448746/))
      (tstamp 6044A6C1))
    (comp (ref C201)
      (value 100pF)
      (libsource (lib rubi-discrete) (part CSMALL))
      (sheetpath (names "/More I/O/") (tstamps /60448746/))
      (tstamp 6044A6D3))
    (comp (ref D201)
      (value RB751V40)
      (libsource (lib device) (part DIODESCH))
      (sheetpath (names "/More I/O/") (tstamps /60448746/))
      (tstamp 6044AD11))
    (comp (ref R205)
      (value 100k)
      (libsource (lib rubi-discrete) (part R-SMALL))
      (sheetpath (names "/More I/O/") (tstamps /60448746/))
      (tstamp 6044AE55))
    (comp (ref R207)
      (value 47k)
      (libsource (lib rubi-discrete) (part R-SMALL))
      (sheetpath (names "/More I/O/") (tstamps /60448746/))
      (tstamp 6044AE5B))
    (comp (ref C202)
      (value 100pF)
      (libsource (lib rubi-discrete) (part CSMALL))
      (sheetpath (names "/More I/O/") (tstamps /60448746/))
      (tstamp 6044AE61))
    (comp (ref D202)
      (value RB751V40)
      (libsource (lib device) (part DIODESCH))
      (sheetpath (names "/More I/O/") (tstamps /60448746/))
      (tstamp 6044AE67))
    (comp (ref R208)
      (value 100k)
      (libsource (lib rubi-discrete) (part R-SMALL))
      (sheetpath (names "/More I/O/") (tstamps /60448746/))
      (tstamp 6044AE8E))
    (comp (ref R210)
      (value 47k)
      (libsource (lib rubi-discrete) (part R-SMALL))
      (sheetpath (names "/More I/O/") (tstamps /60448746/))
      (tstamp 6044AE94))
    (comp (ref C203)
      (value 100pF)
      (libsource (lib rubi-discrete) (part CSMALL))
      (sheetpath (names "/More I/O/") (tstamps /60448746/))
      (tstamp 6044AE9A))
    (comp (ref D203)
      (value RB751V40)
      (libsource (lib device) (part DIODESCH))
      (sheetpath (names "/More I/O/") (tstamps /60448746/))
      (tstamp 6044AEA0))
    (comp (ref R211)
      (value 100k)
      (libsource (lib rubi-discrete) (part R-SMALL))
      (sheetpath (names "/More I/O/") (tstamps /60448746/))
      (tstamp 6044AEC7))
    (comp (ref R213)
      (value 47k)
      (libsource (lib rubi-discrete) (part R-SMALL))
      (sheetpath (names "/More I/O/") (tstamps /60448746/))
      (tstamp 6044AECD))
    (comp (ref C204)
      (value 100pF)
      (libsource (lib rubi-discrete) (part CSMALL))
      (sheetpath (names "/More I/O/") (tstamps /60448746/))
      (tstamp 6044AED3))
    (comp (ref D204)
      (value RB751V40)
      (libsource (lib device) (part DIODESCH))
      (sheetpath (names "/More I/O/") (tstamps /60448746/))
      (tstamp 6044AED9))
    (comp (ref J203)
      (value N5110)
      (libsource (lib rubi-modules) (part N5110))
      (sheetpath (names "/More I/O/") (tstamps /60448746/))
      (tstamp 6044CF65))
    (comp (ref R216)
      (value 1k5)
      (libsource (lib rubi-discrete) (part R-SMALL))
      (sheetpath (names "/More I/O/") (tstamps /60448746/))
      (tstamp 6044CF8F))
    (comp (ref BZ201)
      (value BUZZER)
      (libsource (lib rubi-discrete) (part BUZZER))
      (sheetpath (names "/More I/O/") (tstamps /60448746/))
      (tstamp 60450928))
    (comp (ref R215)
      (value 100R)
      (libsource (lib rubi-discrete) (part R-SMALL))
      (sheetpath (names "/More I/O/") (tstamps /60448746/))
      (tstamp 6045093F))
    (comp (ref RL201)
      (value RELAY-SPST-G6DN)
      (libsource (lib rubi-discrete) (part RELAY-SPST-G6DN))
      (sheetpath (names "/More I/O/") (tstamps /60448746/))
      (tstamp 60451D57))
    (comp (ref J202)
      (value thermostat)
      (footprint conn-3.5mm)
      (libsource (lib rubi-conn) (part CONN-3.5MM))
      (sheetpath (names "/More I/O/") (tstamps /60448746/))
      (tstamp 60451D70))
    (comp (ref Q202)
      (value 2N27002)
      (libsource (lib rubi-discrete) (part NMOS))
      (sheetpath (names "/More I/O/") (tstamps /60448746/))
      (tstamp 60451F3C))
    (comp (ref R214)
      (value 1k)
      (libsource (lib rubi-discrete) (part R-SMALL))
      (sheetpath (names "/More I/O/") (tstamps /60448746/))
      (tstamp 60451F54))
    (comp (ref D205)
      (value 1N4148)
      (libsource (lib device) (part DIODE))
      (sheetpath (names "/More I/O/") (tstamps /60448746/))
      (tstamp 604520BF))
    (comp (ref U204)
      (value MCP9701A)
      (libsource (lib rubi-conn) (part STRIP-3))
      (sheetpath (names "/More I/O/") (tstamps /60448746/))
      (tstamp 604546AF))
    (comp (ref C206)
      (value 100n)
      (libsource (lib rubi-discrete) (part CSMALL))
      (sheetpath (names "/More I/O/") (tstamps /60448746/))
      (tstamp 604546BC))
    (comp (ref C205)
      (value 100n)
      (libsource (lib rubi-discrete) (part CSMALL))
      (sheetpath (names "/More I/O/") (tstamps /60448746/))
      (tstamp 604546C2))
    (comp (ref R203)
      (value 47k)
      (libsource (lib rubi-discrete) (part R-SMALL))
      (sheetpath (names "/More I/O/") (tstamps /60448746/))
      (tstamp 60457187)))
  (libparts
    (libpart (lib rubi-conn) (part CONN-3.5mm)
      (footprints
        (fp conn-3.5mm)
        (fp conn-3.5mm-wurt))
      (fields
        (field (name Reference) J)
        (field (name Value) CONN-3.5mm)
        (field (name Footprint) conn-3.5mm)
        (field (name Datasheet) ~))
      (pins
        (pin (num 1) (name 1) (type passive))
        (pin (num 2) (name ~) (type passive))))
    (libpart (lib rubi-conn) (part flat10)
      (footprints
        (fp flat10)
        (fp flat10-shell))
      (fields
        (field (name Reference) J)
        (field (name Value) flat10)
        (field (name Footprint) ~)
        (field (name Datasheet) ~))
      (pins
        (pin (num 1) (name ~) (type passive))
        (pin (num 2) (name ~) (type passive))
        (pin (num 3) (name ~) (type passive))
        (pin (num 4) (name ~) (type passive))
        (pin (num 5) (name ~) (type passive))
        (pin (num 6) (name ~) (type passive))
        (pin (num 7) (name ~) (type passive))
        (pin (num 8) (name ~) (type passive))
        (pin (num 9) (name ~) (type passive))
        (pin (num 10) (name ~) (type passive))))
    (libpart (lib rubi-conn) (part flat20)
      (footprints
        (fp flat16)
        (fp flat16-shell))
      (fields
        (field (name Reference) J)
        (field (name Value) flat20)
        (field (name Footprint) ~)
        (field (name Datasheet) ~))
      (pins
        (pin (num 1) (name ~) (type passive))
        (pin (num 2) (name ~) (type passive))
        (pin (num 3) (name ~) (type passive))
        (pin (num 4) (name ~) (type passive))
        (pin (num 5) (name ~) (type passive))
        (pin (num 6) (name ~) (type passive))
        (pin (num 7) (name ~) (type passive))
        (pin (num 8) (name ~) (type passive))
        (pin (num 9) (name ~) (type passive))
        (pin (num 10) (name ~) (type passive))
        (pin (num 11) (name ~) (type passive))
        (pin (num 12) (name ~) (type passive))
        (pin (num 13) (name ~) (type passive))
        (pin (num 14) (name ~) (type passive))
        (pin (num 15) (name ~) (type passive))
        (pin (num 16) (name ~) (type passive))
        (pin (num 17) (name ~) (type passive))
        (pin (num 18) (name ~) (type passive))
        (pin (num 19) (name ~) (type passive))
        (pin (num 20) (name ~) (type passive))))
    (libpart (lib rubi-conn) (part STRIP-2)
      (fields
        (field (name Reference) J)
        (field (name Value) STRIP-2)
        (field (name Footprint) ~)
        (field (name Datasheet) ~))
      (pins
        (pin (num 1) (name ~) (type input))
        (pin (num 2) (name ~) (type input))))
    (libpart (lib rubi-conn) (part STRIP-3)
      (fields
        (field (name Reference) J)
        (field (name Value) STRIP-3)
        (field (name Footprint) ~)
        (field (name Datasheet) ~))
      (pins
        (pin (num 1) (name ~) (type input))
        (pin (num 2) (name ~) (type input))
        (pin (num 3) (name ~) (type input))))
    (libpart (lib rubi-conn) (part STRIP-6)
      (fields
        (field (name Reference) J)
        (field (name Value) STRIP-6)
        (field (name Footprint) ~)
        (field (name Datasheet) ~))
      (pins
        (pin (num 1) (name ~) (type input))
        (pin (num 2) (name ~) (type input))
        (pin (num 3) (name ~) (type input))
        (pin (num 4) (name ~) (type input))
        (pin (num 5) (name ~) (type input))
        (pin (num 6) (name ~) (type input))))
    (libpart (lib rubi-conn) (part UEXT)
      (footprints
        (fp flat10)
        (fp flat10-shell))
      (fields
        (field (name Reference) J)
        (field (name Value) UEXT)
        (field (name Footprint) ~)
        (field (name Datasheet) ~))
      (pins
        (pin (num 1) (name 3.3V) (type power_in))
        (pin (num 2) (name GND) (type power_in))
        (pin (num 3) (name TXD) (type passive))
        (pin (num 4) (name RXD) (type passive))
        (pin (num 5) (name SCL) (type passive))
        (pin (num 6) (name SDA) (type passive))
        (pin (num 7) (name MISO) (type passive))
        (pin (num 8) (name MOSI) (type passive))
        (pin (num 9) (name SCK) (type passive))
        (pin (num 10) (name SSEL) (type passive))))
    (libpart (lib rubi-cpu) (part LPC11Uxx)
      (fields
        (field (name Reference) U)
        (field (name Value) LPC11Uxx)
        (field (name Footprint) LQFP48)
        (field (name Datasheet) ~))
      (pins
        (pin (num 1) (name C32B0_M1/PIO1_25) (type BiDi))
        (pin (num 2) (name ~DTR~/SSEL1/PIO1_19) (type BiDi))
        (pin (num 3) (name PIO0_0/~RESET) (type BiDi))
        (pin (num 4) (name PIO0_1/C32B0_M2) (type BiDi))
        (pin (num 5) (name Vss) (type power_in))
        (pin (num 6) (name XTALIN) (type input))
        (pin (num 7) (name XTALOUT) (type input))
        (pin (num 8) (name Vdd) (type power_in))
        (pin (num 9) (name PIO0_20/CT16B1_C0) (type BiDi))
        (pin (num 10) (name PIO0_2/SSEL0/CT16B0_C0) (type BiDi))
        (pin (num 11) (name CT32B0_M2/RXD/PIO1_26) (type BiDi))
        (pin (num 12) (name TC32B0_M3/TXD/PIO1_27) (type BiDi))
        (pin (num 13) (name SCK1/PIO1_20) (type BiDi))
        (pin (num 14) (name PIO0_3/USB_Vbus) (type BiDi))
        (pin (num 15) (name PIO0_4/SCL) (type BiDi))
        (pin (num 16) (name PIO0_5/SDA) (type BiDi))
        (pin (num 17) (name PIO0_21/CT16B1_M0/MOSI1) (type BiDi))
        (pin (num 18) (name CT16B1_M1/SSEL1/PIO1_23) (type BiDi))
        (pin (num 19) (name USB_DM) (type passive))
        (pin (num 20) (name USB_DP) (type passive))
        (pin (num 21) (name CT32B0_M0/PIO1_24) (type BiDi))
        (pin (num 22) (name PIO0_6/~USB_Connect~/SCK0) (type BiDi))
        (pin (num 23) (name PIO0_7/~CTS) (type BiDi))
        (pin (num 24) (name CT32B0_C0/SCLK/PIO1_28) (type BiDi))
        (pin (num 25) (name PIO1_31) (type BiDi))
        (pin (num 26) (name MISO1/PIO1_21) (type BiDi))
        (pin (num 27) (name PIO0_8/MISO0/CT16B0_M0) (type BiDi))
        (pin (num 28) (name PIO0_9/MOSI0/CT16B0_M1) (type BiDi))
        (pin (num 29) (name PIO0_10/SWCLK/SCK0) (type BiDi))
        (pin (num 30) (name PIO0_22/MISO1/ADC6) (type BiDi))
        (pin (num 31) (name SCK0/CT32B0_C1/PIO1_29) (type BiDi))
        (pin (num 32) (name PIO0_11/TDI/AD0) (type BiDi))
        (pin (num 33) (name PIO0_12/TMS/AD1) (type BiDi))
        (pin (num 34) (name PIO0_13/TDO/AD2) (type BiDi))
        (pin (num 35) (name PIO0_14/~TRST~/AD3) (type BiDi))
        (pin (num 36) (name TXD/PIO1_13) (type BiDi))
        (pin (num 37) (name RXD/PIO1_14) (type BiDi))
        (pin (num 38) (name MOSI1/PIO1_22) (type BiDi))
        (pin (num 39) (name PIO0_15/SWDIO/AD4) (type BiDi))
        (pin (num 40) (name PIO0_16/AD5/CT32B1_M3) (type BiDi))
        (pin (num 41) (name Vss) (type power_in))
        (pin (num 42) (name PIO0_23/AD7) (type BiDi))
        (pin (num 43) (name SCK1/PIO1_15) (type BiDi))
        (pin (num 44) (name Vdd) (type power_in))
        (pin (num 45) (name PIO0_17/CT32B0_C0/SCLK) (type BiDi))
        (pin (num 46) (name PIO0_18/RXD) (type BiDi))
        (pin (num 47) (name PIO0_19/TXD) (type BiDi))
        (pin (num 48) (name CT16B0_C0/PIO1_16) (type BiDi))))
    (libpart (lib rubi-ic) (part 24AA64F)
      (fields
        (field (name Reference) U)
        (field (name Value) 24AA64F)
        (field (name Footprint) ~)
        (field (name Datasheet) ~))
      (pins
        (pin (num 1) (name A0) (type input))
        (pin (num 2) (name A1) (type input))
        (pin (num 3) (name A2) (type input))
        (pin (num 4) (name GND) (type power_in))
        (pin (num 5) (name SDA) (type BiDi))
        (pin (num 6) (name SCL) (type BiDi))
        (pin (num 7) (name WP) (type input))
        (pin (num 8) (name Vdd) (type power_in))))
    (libpart (lib rubi-discrete) (part 3906)
      (fields
        (field (name Reference) Q)
        (field (name Value) 3906)
        (field (name Footprint) ~)
        (field (name Datasheet) ~))
      (pins
        (pin (num 1) (name ~) (type passive))
        (pin (num 2) (name ~) (type passive))
        (pin (num 3) (name ~) (type passive))))
    (libpart (lib rubi-discrete) (part BUZZER)
      (fields
        (field (name Reference) BZ)
        (field (name Value) BUZZER)
        (field (name Footprint) ~)
        (field (name Datasheet) ~))
      (pins
        (pin (num 1) (name +) (type input))
        (pin (num 2) (name -) (type input))))
    (libpart (lib rubi-discrete) (part C)
      (footprints
        (fp C_*)
        (fp SM*))
      (fields
        (field (name Reference) C)
        (field (name Value) C)
        (field (name Footprint) ~)
        (field (name Datasheet) ~))
      (pins
        (pin (num 1) (name ~) (type passive))
        (pin (num 2) (name ~) (type passive))))
    (libpart (lib rubi-discrete) (part Csmall)
      (footprints
        (fp C_*)
        (fp SM*))
      (fields
        (field (name Reference) C)
        (field (name Value) Csmall)
        (field (name Footprint) ~)
        (field (name Datasheet) ~))
      (pins
        (pin (num 1) (name ~) (type passive))
        (pin (num 2) (name ~) (type passive))))
    (libpart (lib rubi-discrete) (part HOLE-3MM)
      (fields
        (field (name Reference) H)
        (field (name Value) HOLE-3MM)
        (field (name Footprint) ~)
        (field (name Datasheet) ~))
      (pins
        (pin (num 1) (name GND) (type passive))))
    (libpart (lib rubi-discrete) (part LED)
      (footprints
        (fp LED-0603-rubi))
      (fields
        (field (name Reference) D)
        (field (name Value) LED)
        (field (name Footprint) ~)
        (field (name Datasheet) ~))
      (pins
        (pin (num 1) (name A) (type passive))
        (pin (num 2) (name K) (type passive))))
    (libpart (lib rubi-discrete) (part NMOS)
      (footprints
        (fp SOT23-rubi)
        (fp SOT23-NMOS))
      (fields
        (field (name Reference) Q)
        (field (name Value) NMOS)
        (field (name Footprint) ~)
        (field (name Datasheet) ~))
      (pins
        (pin (num 1) (name G) (type passive))
        (pin (num 2) (name S) (type passive))
        (pin (num 3) (name D) (type passive))))
    (libpart (lib rubi-discrete) (part R-small)
      (footprints
        (fp R0603-rubi))
      (fields
        (field (name Reference) R)
        (field (name Value) R-small)
        (field (name Footprint) ~)
        (field (name Datasheet) ~))
      (pins
        (pin (num 1) (name ~) (type passive))
        (pin (num 2) (name ~) (type passive))))
    (libpart (lib rubi-discrete) (part RELAY-SPST-G6DN)
      (fields
        (field (name Reference) RL)
        (field (name Value) RELAY-SPST-G6DN)
        (field (name Footprint) ~)
        (field (name Datasheet) ~))
      (pins
        (pin (num 1) (name ~) (type passive))
        (pin (num 2) (name ~) (type passive))
        (pin (num 5) (name ~) (type passive))
        (pin (num 8) (name ~) (type passive))))
    (libpart (lib rubi-ic) (part 78L05)
      (fields
        (field (name Reference) U)
        (field (name Value) 78L05)
        (field (name Footprint) ~)
        (field (name Datasheet) ~))
      (pins
        (pin (num 1) (name Vout) (type power_in))
        (pin (num 2) (name GND) (type power_in))
        (pin (num 3) (name GND) (type power_in))
        (pin (num 4) (name NC) (type NotConnected))
        (pin (num 5) (name NC) (type NotConnected))
        (pin (num 6) (name GND) (type power_in))
        (pin (num 7) (name GND) (type power_in))
        (pin (num 8) (name Vin) (type power_out))))
    (libpart (lib rubi-ic) (part AP2111H)
      (fields
        (field (name Reference) U)
        (field (name Value) AP2111H)
        (field (name Footprint) ~)
        (field (name Datasheet) ~))
      (pins
        (pin (num 1) (name GND) (type power_in))
        (pin (num 2) (name Vout) (type power_out))
        (pin (num 3) (name Vin) (type power_in))))
    (libpart (lib rubi-ic) (part MCP4728)
      (fields
        (field (name Reference) U)
        (field (name Value) MCP4728)
        (field (name Footprint) ~)
        (field (name Datasheet) ~))
      (pins
        (pin (num 1) (name Vdd) (type power_in))
        (pin (num 2) (name SCL) (type BiDi))
        (pin (num 3) (name SDA) (type BiDi))
        (pin (num 4) (name ~LDAC) (type passive))
        (pin (num 5) (name R/~B) (type output))
        (pin (num 6) (name VoutA) (type output))
        (pin (num 7) (name VoutB) (type output))
        (pin (num 8) (name VoutC) (type output))
        (pin (num 9) (name VoutD) (type output))
        (pin (num 10) (name Vss) (type power_in))))
    (libpart (lib rubi-ic) (part OSC-4PIN)
      (fields
        (field (name Reference) U)
        (field (name Value) OSC-4PIN)
        (field (name Footprint) ~)
        (field (name Datasheet) ~))
      (pins
        (pin (num 1) (name Dis*) (type passive))
        (pin (num 2) (name GND) (type power_in))
        (pin (num 3) (name out) (type output))
        (pin (num 4) (name Vdd) (type power_in))))
    (libpart (lib rubi-ic) (part OSC-6PIN)
      (fields
        (field (name Reference) U)
        (field (name Value) OSC-6PIN)
        (field (name Footprint) ~)
        (field (name Datasheet) ~))
      (pins
        (pin (num 1) (name Vctrl) (type input))
        (pin (num 2) (name E/~D) (type input))
        (pin (num 3) (name GND) (type power_in))
        (pin (num 4) (name out) (type output))
        (pin (num 5) (name NC) (type NotConnected))
        (pin (num 6) (name Vdd) (type power_in))))
    (libpart (lib rubi-ic) (part SPI-FLASH-8)
      (fields
        (field (name Reference) U)
        (field (name Value) SPI-FLASH-8)
        (field (name Footprint) ~)
        (field (name Datasheet) ~))
      (pins
        (pin (num 1) (name CS*) (type input))
        (pin (num 2) (name SO) (type output))
        (pin (num 3) (name WP*) (type passive))
        (pin (num 4) (name GND) (type power_in))
        (pin (num 5) (name SI) (type input))
        (pin (num 6) (name SCK) (type input))
        (pin (num 7) (name RESET*) (type passive))
        (pin (num 8) (name Vcc) (type power_in))))
    (libpart (lib rubi-ic) (part TS3702)
      (fields
        (field (name Reference) U)
        (field (name Value) TS3702)
        (field (name Footprint) ~)
        (field (name Datasheet) ~))
      (pins
        (pin (num 1) (name ~) (type output))
        (pin (num 2) (name -) (type input))
        (pin (num 3) (name +) (type input))
        (pin (num 4) (name ~) (type power_in))
        (pin (num 5) (name +) (type input))
        (pin (num 6) (name -) (type input))
        (pin (num 7) (name ~) (type output))
        (pin (num 8) (name ~) (type power_in))))
    (libpart (lib rubi-ic) (part WS2812B)
      (fields
        (field (name Reference) U)
        (field (name Value) WS2812B)
        (field (name Footprint) ~)
        (field (name Datasheet) ~))
      (pins
        (pin (num 1) (name Vdd) (type power_in))
        (pin (num 2) (name Dout) (type output))
        (pin (num 3) (name Vss) (type power_in))
        (pin (num 4) (name Din) (type input))))
    (libpart (lib rubi-modules) (part N5110)
      (fields
        (field (name Reference) J)
        (field (name Value) N5110)
        (field (name Footprint) ~)
        (field (name Datasheet) ~))
      (pins
        (pin (num 1) (name RST) (type passive))
        (pin (num 2) (name CE) (type passive))
        (pin (num 3) (name DC) (type passive))
        (pin (num 4) (name DIN) (type passive))
        (pin (num 5) (name CLK) (type passive))
        (pin (num 6) (name VCC) (type passive))
        (pin (num 7) (name L) (type passive))
        (pin (num 8) (name GND) (type passive))))
    (libpart (lib device) (part DIODE)
      (description "Diode simple")
      (footprints
        (fp D?)
        (fp S*))
      (fields
        (field (name Reference) D)
        (field (name Value) DIODE)
        (field (name Footprint) ~)
        (field (name Datasheet) ~))
      (pins
        (pin (num 1) (name A) (type passive))
        (pin (num 2) (name K) (type passive))))
    (libpart (lib device) (part DIODESCH)
      (description "Diode schottky")
      (footprints
        (fp D?)
        (fp S*))
      (fields
        (field (name Reference) D)
        (field (name Value) DIODESCH)
        (field (name Footprint) ~)
        (field (name Datasheet) ~))
      (pins
        (pin (num 1) (name A) (type passive))
        (pin (num 2) (name K) (type passive))))
    (libpart (lib conn) (part USB-MINI-B)
      (description "USB Mini B connector")
      (footprints
        (fp USB-Mini-B-Jack))
      (fields
        (field (name Reference) CON)
        (field (name Value) USB-MINI-B))
      (pins
        (pin (num 1) (name VBUS) (type power_in))
        (pin (num 2) (name D-) (type BiDi))
        (pin (num 3) (name D+) (type BiDi))
        (pin (num 4) (name ID) (type BiDi))
        (pin (num 5) (name GND) (type power_in))
        (pin (num 6) (name SHELL1) (type BiDi))
        (pin (num 7) (name SHELL2) (type BiDi))
        (pin (num 8) (name SHELL3) (type BiDi))
        (pin (num 9) (name SHELL4) (type BiDi)))))
  (libraries
    (library (logical rubi-conn)
      (uri ../lib/rubi-conn.lib))
    (library (logical rubi-cpu)
      (uri ../lib/rubi-cpu.lib))
    (library (logical rubi-discrete)
      (uri ../lib/rubi-discrete.lib))
    (library (logical rubi-ic)
      (uri ../lib/rubi-ic.lib))
    (library (logical rubi-modules)
      (uri ../lib/rubi-modules.lib))
    (library (logical device)
      (uri /usr/share/kicad/library/device.lib))
    (library (logical conn)
      (uri /usr/share/kicad/library/conn.lib)))
  (nets
    (net (code 1) (name "")
      (node (ref U7) (pin 7)))
    (net (code 2) (name "")
      (node (ref U7) (pin 9)))
    (net (code 3) (name /VC)
      (node (ref U10) (pin 1))
      (node (ref U7) (pin 6)))
    (net (code 4) (name /SCL)
      (node (ref U6) (pin 6))
      (node (ref U7) (pin 2))
      (node (ref R3) (pin 2))
      (node (ref U1) (pin 15))
      (node (ref J7) (pin 5)))
    (net (code 5) (name /SDA)
      (node (ref R4) (pin 2))
      (node (ref U7) (pin 3))
      (node (ref U1) (pin 16))
      (node (ref J7) (pin 6))
      (node (ref U6) (pin 5)))
    (net (code 6) (name "")
      (node (ref U7) (pin 4)))
    (net (code 7) (name "")
      (node (ref U7) (pin 5)))
    (net (code 8) (name +3.3V)
      (node (ref R4) (pin 1))
      (node (ref D201) (pin 2))
      (node (ref U10) (pin 2))
      (node (ref C10) (pin 1))
      (node (ref C1) (pin 1))
      (node (ref U2) (pin 4))
      (node (ref Q1) (pin 2))
      (node (ref R3) (pin 1))
      (node (ref C2) (pin 1))
      (node (ref J3) (pin 2))
      (node (ref J3) (pin 1))
      (node (ref U9) (pin 3))
      (node (ref U5) (pin 3))
      (node (ref U204) (pin 1))
      (node (ref U5) (pin 8))
      (node (ref C205) (pin 1))
      (node (ref U9) (pin 8))
      (node (ref C4) (pin 1))
      (node (ref D203) (pin 2))
      (node (ref U10) (pin 6))
      (node (ref D204) (pin 2))
      (node (ref U3) (pin 2))
      (node (ref D202) (pin 2))
      (node (ref J7) (pin 1))
      (node (ref J203) (pin 6))
      (node (ref J5) (pin 1))
      (node (ref R1) (pin 1))
      (node (ref R17) (pin 1))
      (node (ref R15) (pin 1))
      (node (ref R2) (pin 1))
      (node (ref C5) (pin 1))
      (node (ref U1) (pin 8))
      (node (ref R216) (pin 2))
      (node (ref R10) (pin 1))
      (node (ref U1) (pin 44))
      (node (ref U7) (pin 1))
      (node (ref U6) (pin 8))
      (node (ref U8) (pin 8)))
    (net (code 9) (name +5V)
      (node (ref D205) (pin 2))
      (node (ref U202) (pin 1))
      (node (ref U3) (pin 3))
      (node (ref U203) (pin 1))
      (node (ref R14) (pin 1))
      (node (ref RL201) (pin 1))
      (node (ref C3) (pin 1))
      (node (ref R201) (pin 2))
      (node (ref U201) (pin 1)))
    (net (code 10) (name "")
      (node (ref U7) (pin 8)))
    (net (code 11) (name GND)
      (node (ref D1) (pin 2))
      (node (ref J9) (pin 5))
      (node (ref J7) (pin 2))
      (node (ref H1) (pin 1))
      (node (ref H2) (pin 1))
      (node (ref H3) (pin 1))
      (node (ref H4) (pin 1))
      (node (ref U4) (pin 2))
      (node (ref C6) (pin 2))
      (node (ref R9) (pin 2))
      (node (ref U4) (pin 7))
      (node (ref U4) (pin 6))
      (node (ref U4) (pin 3))
      (node (ref J4) (pin 1))
      (node (ref U204) (pin 3))
      (node (ref U6) (pin 2))
      (node (ref C2) (pin 2))
      (node (ref C1) (pin 2))
      (node (ref J3) (pin 6))
      (node (ref J3) (pin 8))
      (node (ref J3) (pin 4))
      (node (ref D4) (pin 2))
      (node (ref D3) (pin 2))
      (node (ref U6) (pin 1))
      (node (ref J1) (pin 2))
      (node (ref J3) (pin 18))
      (node (ref J3) (pin 16))
      (node (ref J3) (pin 14))
      (node (ref U2) (pin 2))
      (node (ref J3) (pin 12))
      (node (ref J3) (pin 20))
      (node (ref J3) (pin 10))
      (node (ref C3) (pin 2))
      (node (ref C4) (pin 2))
      (node (ref U1) (pin 41))
      (node (ref U3) (pin 1))
      (node (ref U1) (pin 5))
      (node (ref BZ201) (pin 2))
      (node (ref J6) (pin 1))
      (node (ref J2) (pin 1))
      (node (ref U202) (pin 3))
      (node (ref Q201) (pin 2))
      (node (ref U10) (pin 3))
      (node (ref C10) (pin 2))
      (node (ref U203) (pin 3))
      (node (ref U201) (pin 3))
      (node (ref C201) (pin 1))
      (node (ref R204) (pin 1))
      (node (ref J201) (pin 6))
      (node (ref J201) (pin 1))
      (node (ref C8) (pin 2))
      (node (ref C5) (pin 2))
      (node (ref U7) (pin 10))
      (node (ref U8) (pin 4))
      (node (ref U6) (pin 7))
      (node (ref U6) (pin 4))
      (node (ref U6) (pin 3))
      (node (ref J203) (pin 8))
      (node (ref J5) (pin 2))
      (node (ref D2) (pin 2))
      (node (ref R19) (pin 1))
      (node (ref R20) (pin 1))
      (node (ref C203) (pin 1))
      (node (ref R210) (pin 1))
      (node (ref U9) (pin 4))
      (node (ref R214) (pin 2))
      (node (ref R203) (pin 2))
      (node (ref Q202) (pin 2))
      (node (ref J10) (pin 1))
      (node (ref C9) (pin 2))
      (node (ref C202) (pin 1))
      (node (ref C205) (pin 2))
      (node (ref U5) (pin 4))
      (node (ref R213) (pin 1))
      (node (ref C206) (pin 2))
      (node (ref C7) (pin 2))
      (node (ref C204) (pin 1))
      (node (ref R207) (pin 2)))
    (net (code 12) (name "")
      (node (ref R18) (pin 1))
      (node (ref R20) (pin 2))
      (node (ref R17) (pin 2))
      (node (ref U8) (pin 5)))
    (net (code 13) (name "")
      (node (ref R19) (pin 2))
      (node (ref R15) (pin 2))
      (node (ref U8) (pin 3))
      (node (ref R16) (pin 1)))
    (net (code 14) (name "")
      (node (ref D2) (pin 1))
      (node (ref R11) (pin 2)))
    (net (code 15) (name /DIAG1)
      (node (ref U1) (pin 23))
      (node (ref R11) (pin 1)))
    (net (code 16) (name /RXD)
      (node (ref J2) (pin 3))
      (node (ref U1) (pin 46)))
    (net (code 17) (name /TXD)
      (node (ref U1) (pin 47))
      (node (ref J2) (pin 2)))
    (net (code 18) (name "/More I/O/A4")
      (node (ref J5) (pin 6))
      (node (ref U1) (pin 39))
      (node (ref D204) (pin 1))
      (node (ref C204) (pin 2))
      (node (ref R213) (pin 2))
      (node (ref R211) (pin 2)))
    (net (code 19) (name /TDC5)
      (node (ref U1) (pin 17))
      (node (ref J5) (pin 8)))
    (net (code 20) (name /TDC7)
      (node (ref U1) (pin 42))
      (node (ref J5) (pin 10)))
    (net (code 21) (name "")
      (node (ref U1) (pin 36)))
    (net (code 22) (name "")
      (node (ref U1) (pin 48)))
    (net (code 23) (name "")
      (node (ref U1) (pin 11)))
    (net (code 24) (name "/More I/O/SCK51")
      (node (ref U9) (pin 6))
      (node (ref U5) (pin 6))
      (node (ref U1) (pin 13))
      (node (ref J7) (pin 9))
      (node (ref J203) (pin 5)))
    (net (code 25) (name /SSEL0)
      (node (ref U1) (pin 1))
      (node (ref U9) (pin 1))
      (node (ref U5) (pin 1)))
    (net (code 26) (name "")
      (node (ref U10) (pin 5)))
    (net (code 27) (name /5V0)
      (node (ref U4) (pin 1))
      (node (ref D5) (pin 2))
      (node (ref R14) (pin 2)))
    (net (code 28) (name "/More I/O/CE51")
      (node (ref U1) (pin 45))
      (node (ref J7) (pin 10))
      (node (ref J203) (pin 2)))
    (net (code 29) (name "/More I/O/DC51")
      (node (ref U1) (pin 2))
      (node (ref J203) (pin 3)))
    (net (code 30) (name "/More I/O/MOSI51")
      (node (ref U1) (pin 38))
      (node (ref J203) (pin 4))
      (node (ref J7) (pin 8))
      (node (ref U5) (pin 5))
      (node (ref U9) (pin 5)))
    (net (code 31) (name "/More I/O/RELAY")
      (node (ref U1) (pin 37))
      (node (ref R214) (pin 1))
      (node (ref Q202) (pin 1)))
    (net (code 32) (name "/More I/O/BUZZ")
      (node (ref R215) (pin 2))
      (node (ref U1) (pin 27)))
    (net (code 33) (name "/More I/O/THERMO")
      (node (ref U1) (pin 32))
      (node (ref J3) (pin 5))
      (node (ref U204) (pin 2))
      (node (ref C206) (pin 1))
      (node (ref R203) (pin 1)))
    (net (code 34) (name /Ana1)
      (node (ref C8) (pin 1))
      (node (ref U8) (pin 2))
      (node (ref R21) (pin 1))
      (node (ref J8) (pin 1)))
    (net (code 35) (name "/More I/O/~NP")
      (node (ref Q201) (pin 1))
      (node (ref U1) (pin 28)))
    (net (code 36) (name "")
      (node (ref U1) (pin 21))
      (node (ref C7) (pin 1)))
    (net (code 37) (name /DIAG3)
      (node (ref R13) (pin 1))
      (node (ref U1) (pin 25)))
    (net (code 38) (name "")
      (node (ref R8) (pin 2))
      (node (ref J9) (pin 1))
      (node (ref D5) (pin 1)))
    (net (code 39) (name "")
      (node (ref U1) (pin 10)))
    (net (code 40) (name /OSC1)
      (node (ref R21) (pin 2))
      (node (ref R16) (pin 2))
      (node (ref J11) (pin 1))
      (node (ref U8) (pin 1)))
    (net (code 41) (name /Ana2)
      (node (ref R22) (pin 1))
      (node (ref U8) (pin 6))
      (node (ref C9) (pin 1))
      (node (ref J8) (pin 2)))
    (net (code 42) (name /OSC2)
      (node (ref J11) (pin 2))
      (node (ref U8) (pin 7))
      (node (ref R18) (pin 2))
      (node (ref R22) (pin 2)))
    (net (code 43) (name "")
      (node (ref U1) (pin 12)))
    (net (code 44) (name /MISO)
      (node (ref J7) (pin 7))
      (node (ref U5) (pin 2))
      (node (ref U9) (pin 2))
      (node (ref U1) (pin 26)))
    (net (code 45) (name /RST*)
      (node (ref J3) (pin 15))
      (node (ref J1) (pin 1))
      (node (ref U5) (pin 7))
      (node (ref U1) (pin 3))
      (node (ref U9) (pin 7))
      (node (ref R1) (pin 2)))
    (net (code 46) (name "")
      (node (ref U4) (pin 4)))
    (net (code 47) (name "")
      (node (ref U4) (pin 5)))
    (net (code 48) (name /Vbus)
      (node (ref R9) (pin 1))
      (node (ref R8) (pin 1))
      (node (ref U1) (pin 14)))
    (net (code 49) (name "")
      (node (ref J9) (pin 7))
      (node (ref J9) (pin 8))
      (node (ref J9) (pin 9))
      (node (ref J9) (pin 6)))
    (net (code 50) (name "")
      (node (ref J7) (pin 3)))
    (net (code 51) (name "")
      (node (ref J7) (pin 4)))
    (net (code 52) (name /DP)
      (node (ref R6) (pin 2))
      (node (ref J9) (pin 3)))
    (net (code 53) (name /DM)
      (node (ref R7) (pin 2))
      (node (ref J9) (pin 2)))
    (net (code 54) (name "")
      (node (ref J9) (pin 4)))
    (net (code 55) (name /USBC*)
      (node (ref Q1) (pin 1))
      (node (ref U1) (pin 22)))
    (net (code 56) (name "")
      (node (ref Q1) (pin 3))
      (node (ref R5) (pin 2)))
    (net (code 57) (name /DIAG2)
      (node (ref U1) (pin 24))
      (node (ref R12) (pin 1)))
    (net (code 58) (name "")
      (node (ref U1) (pin 31)))
    (net (code 59) (name "")
      (node (ref R6) (pin 1))
      (node (ref R5) (pin 1))
      (node (ref U1) (pin 20)))
    (net (code 60) (name "")
      (node (ref U2) (pin 1)))
    (net (code 61) (name "")
      (node (ref U1) (pin 18)))
    (net (code 62) (name "")
      (node (ref U1) (pin 7)))
    (net (code 63) (name /Xin)
      (node (ref U2) (pin 3))
      (node (ref U10) (pin 4))
      (node (ref U1) (pin 6)))
    (net (code 64) (name "")
      (node (ref U1) (pin 43)))
    (net (code 65) (name "")
      (node (ref U1) (pin 19))
      (node (ref R7) (pin 1)))
    (net (code 66) (name /TDC4)
      (node (ref U1) (pin 9))
      (node (ref J5) (pin 7)))
    (net (code 67) (name /TCK)
      (node (ref U1) (pin 29))
      (node (ref J3) (pin 9)))
    (net (code 68) (name /TDC6)
      (node (ref U1) (pin 30))
      (node (ref J5) (pin 9)))
    (net (code 69) (name /PPS)
      (node (ref U1) (pin 40))
      (node (ref J6) (pin 2)))
    (net (code 70) (name "/More I/O/A1")
      (node (ref C201) (pin 2))
      (node (ref U1) (pin 33))
      (node (ref R204) (pin 2))
      (node (ref R202) (pin 2))
      (node (ref J5) (pin 3))
      (node (ref D201) (pin 1))
      (node (ref J3) (pin 7)))
    (net (code 71) (name "/More I/O/A3")
      (node (ref U1) (pin 35))
      (node (ref J5) (pin 5))
      (node (ref J3) (pin 3))
      (node (ref C203) (pin 2))
      (node (ref R210) (pin 2))
      (node (ref R208) (pin 2))
      (node (ref D203) (pin 1)))
    (net (code 72) (name "/More I/O/A2")
      (node (ref J3) (pin 13))
      (node (ref J5) (pin 4))
      (node (ref U1) (pin 34))
      (node (ref D202) (pin 1))
      (node (ref C202) (pin 2))
      (node (ref R205) (pin 2))
      (node (ref R207) (pin 1)))
    (net (code 73) (name "")
      (node (ref J3) (pin 11)))
    (net (code 74) (name "")
      (node (ref J3) (pin 17)))
    (net (code 75) (name "")
      (node (ref J3) (pin 19)))
    (net (code 76) (name "")
      (node (ref U4) (pin 8))
      (node (ref J10) (pin 2))
      (node (ref J4) (pin 2))
      (node (ref C6) (pin 1)))
    (net (code 77) (name "")
      (node (ref R10) (pin 2))
      (node (ref D1) (pin 1)))
    (net (code 78) (name "")
      (node (ref D4) (pin 1))
      (node (ref R13) (pin 2)))
    (net (code 79) (name "")
      (node (ref R12) (pin 2))
      (node (ref D3) (pin 1)))
    (net (code 80) (name /PRG*)
      (node (ref R2) (pin 2))
      (node (ref J1) (pin 3))
      (node (ref U1) (pin 4)))
    (net (code 81) (name "")
      (node (ref BZ201) (pin 1))
      (node (ref R215) (pin 1)))
    (net (code 82) (name "")
      (node (ref Q202) (pin 3))
      (node (ref RL201) (pin 2))
      (node (ref D205) (pin 1)))
    (net (code 83) (name "")
      (node (ref RL201) (pin 5))
      (node (ref J202) (pin 2)))
    (net (code 84) (name "")
      (node (ref J202) (pin 1))
      (node (ref RL201) (pin 8)))
    (net (code 85) (name "")
      (node (ref U203) (pin 2)))
    (net (code 86) (name "")
      (node (ref U203) (pin 4))
      (node (ref U202) (pin 2)))
    (net (code 87) (name "")
      (node (ref U201) (pin 2))
      (node (ref U202) (pin 4)))
    (net (code 88) (name "")
      (node (ref R201) (pin 1))
      (node (ref U201) (pin 4))
      (node (ref Q201) (pin 3)))
    (net (code 89) (name "")
      (node (ref J203) (pin 7)))
    (net (code 90) (name "/More I/O/A4ext")
      (node (ref R211) (pin 1))
      (node (ref J201) (pin 5)))
    (net (code 91) (name "/More I/O/A3ext")
      (node (ref J201) (pin 4))
      (node (ref R208) (pin 1)))
    (net (code 92) (name "/More I/O/A2ext")
      (node (ref J201) (pin 3))
      (node (ref R205) (pin 1)))
    (net (code 93) (name "/More I/O/A1ext")
      (node (ref R202) (pin 1))
      (node (ref J201) (pin 2)))
    (net (code 94) (name "/More I/O/RST-51")
      (node (ref J203) (pin 1))
      (node (ref R216) (pin 1)))))